<?xml version="1.0" encoding="UTF-8"?>
<svg id="svg202" width="22.912cm" height="15.649cm" version="1.1" viewBox="150 -2 440.31 296.35" xmlns="http://www.w3.org/2000/svg" xmlns:cc="http://creativecommons.org/ns#" xmlns:dc="http://purl.org/dc/elements/1.1/" xmlns:rdf="http://www.w3.org/1999/02/22-rdf-syntax-ns#">
 <metadata id="metadata208">
  <rdf:RDF>
   <cc:Work rdf:about="">
    <dc:format>image/svg+xml</dc:format>
    <dc:type rdf:resource="http://purl.org/dc/dcmitype/StillImage"/>
   </cc:Work>
  </rdf:RDF>
 </metadata>
 <g id="text4" aria-label="std::vector&lt;Alakzat*&gt;">
  <path id="path107" d="m154.97-1.2587v1.0875q-0.4875-0.25-1.0125-0.375t-1.0875-0.125q-0.85625 0-1.2875 0.2625-0.425 0.2625-0.425 0.7875 0 0.4 0.30625 0.63125 0.30625 0.225 1.2312 0.43125l0.39375 0.0875q1.225 0.2625 1.7375 0.74375 0.51875 0.475 0.51875 1.3312 0 0.975-0.775 1.5438-0.76875 0.56875-2.1188 0.56875-0.5625 0-1.175-0.1125-0.60625-0.10625-1.2812-0.325v-1.1875q0.6375 0.33125 1.2562 0.5 0.61875 0.1625 1.225 0.1625 0.8125 0 1.25-0.275 0.4375-0.28125 0.4375-0.7875 0-0.46875-0.31875-0.71875-0.3125-0.25-1.3812-0.48125l-0.4-0.09375q-1.0688-0.225-1.5438-0.6875-0.475-0.46875-0.475-1.2813 0-0.9875 0.7-1.525 0.7-0.5375 1.9875-0.5375 0.6375 0 1.2 0.09375t1.0375 0.28125z" style=""/>
  <path id="path109" d="m158.32-3.4525v1.9875h2.3688v0.89375h-2.3688v3.8q0 0.85625 0.23125 1.1 0.2375 0.24375 0.95625 0.24375h1.1812v0.9625h-1.1812q-1.3312 0-1.8375-0.49375-0.50625-0.5-0.50625-1.8125v-3.8h-0.84375v-0.89375h0.84375v-1.9875z" style=""/>
  <path id="path111" d="m166.82-0.40245v-3.7875h1.15v9.725h-1.15v-1.05q-0.3625 0.625-0.91875 0.93125-0.55 0.3-1.325 0.3-1.2688 0-2.0688-1.0125-0.79375-1.0125-0.79375-2.6625 0-1.65 0.79375-2.6625 0.8-1.0125 2.0688-1.0125 0.775 0 1.325 0.30625 0.55625 0.3 0.91875 0.925zm-3.9188 2.4438q0 1.2688 0.51875 1.9938 0.525 0.71875 1.4375 0.71875t1.4375-0.71875q0.525-0.725 0.525-1.9938 0-1.2688-0.525-1.9875-0.525-0.725-1.4375-0.725t-1.4375 0.725q-0.51875 0.71875-0.51875 1.9875z" style=""/>
  <path id="path113" d="m170.63 3.9475h1.3188v1.5875h-1.3188zm0-5.0312h1.3188v1.5875h-1.3188z" style=""/>
  <path id="path115" d="m174.96 3.9475h1.3188v1.5875h-1.3188zm0-5.0312h1.3188v1.5875h-1.3188z" style=""/>
  <path id="path117" d="m178.16-1.465h1.2188l2.1875 5.875 2.1875-5.875h1.2188l-2.625 7h-1.5625z" style=""/>
  <path id="path119" d="m192.55 1.7475v0.5625h-5.2875q0.075 1.1875 0.7125 1.8125 0.64375 0.61875 1.7875 0.61875 0.6625 0 1.2812-0.1625 0.625-0.1625 1.2375-0.4875v1.0875q-0.61875 0.2625-1.2688 0.4t-1.3188 0.1375q-1.675 0-2.6562-0.975-0.975-0.975-0.975-2.6375 0-1.7188 0.925-2.725 0.93125-1.0125 2.5062-1.0125 1.4125 0 2.2312 0.9125 0.825 0.90625 0.825 2.4688zm-1.15-0.3375q-0.0125-0.94375-0.53125-1.5063-0.5125-0.5625-1.3625-0.5625-0.9625 0-1.5438 0.54375-0.575 0.54375-0.6625 1.5313z" style=""/>
  <path id="path121" d="m199.48-1.1962v1.075q-0.4875-0.26875-0.98125-0.4-0.4875-0.1375-0.9875-0.1375-1.1188 0-1.7375 0.7125-0.61875 0.70625-0.61875 1.9875 0 1.2812 0.61875 1.9938 0.61875 0.70625 1.7375 0.70625 0.5 0 0.9875-0.13125 0.49375-0.1375 0.98125-0.40625v1.0625q-0.48125 0.225-1 0.3375-0.5125 0.1125-1.0938 0.1125-1.5812 0-2.5125-0.99375-0.93125-0.99375-0.93125-2.6812 0-1.7125 0.9375-2.6938 0.94375-0.98125 2.5812-0.98125 0.53125 0 1.0375 0.1125 0.50625 0.10625 0.98125 0.325z" style=""/>
  <path id="path123" d="m202.62-3.4525v1.9875h2.3688v0.89375h-2.3688v3.8q0 0.85625 0.23125 1.1 0.2375 0.24375 0.95625 0.24375h1.1812v0.9625h-1.1812q-1.3312 0-1.8375-0.49375-0.50625-0.5-0.50625-1.8125v-3.8h-0.84375v-0.89375h0.84375v-1.9875z" style=""/>
  <path id="path125" d="m209.22-0.6587q-0.925 0-1.4625 0.725-0.5375 0.71875-0.5375 1.975 0 1.2562 0.53125 1.9812 0.5375 0.71875 1.4688 0.71875 0.91875 0 1.4562-0.725t0.5375-1.975q0-1.2438-0.5375-1.9688-0.5375-0.73125-1.4562-0.73125zm0-0.975q1.5 0 2.3562 0.975 0.85625 0.975 0.85625 2.7 0 1.7188-0.85625 2.7-0.85625 0.975-2.3562 0.975-1.5062 0-2.3625-0.975-0.85-0.98125-0.85-2.7 0-1.725 0.85-2.7 0.85625-0.975 2.3625-0.975z" style=""/>
  <path id="path127" d="m218.39-0.38995q-0.19375-0.1125-0.425-0.1625-0.225-0.05625-0.5-0.05625-0.975 0-1.5 0.6375-0.51875 0.63125-0.51875 1.8188v3.6875h-1.1562v-7h1.1562v1.0875q0.3625-0.6375 0.94375-0.94375 0.58125-0.3125 1.4125-0.3125 0.11875 0 0.2625 0.01875 0.14375 0.0125 0.31875 0.04375z" style=""/>
  <path id="path129" d="m227.77-0.76495-6.45 2.2938 6.45 2.2812v1.1375l-8.0125-2.9063v-1.0375l8.0125-2.9062z" style=""/>
  <path id="path131" d="m233.51-2.5525-1.7125 4.6438h3.4312zm-0.7125-1.2438h1.4312l3.5562 9.3313h-1.3125l-0.85-2.3938h-4.2062l-0.85 2.3938h-1.3312z" style=""/>
  <path id="path133" d="m239.09-4.19h1.15v9.725h-1.15z" style=""/>
  <path id="path135" d="m245.82 2.0163q-1.3938 0-1.9312 0.31875t-0.5375 1.0875q0 0.6125 0.4 0.975 0.40625 0.35625 1.1 0.35625 0.95625 0 1.5312-0.675 0.58125-0.68125 0.58125-1.8062v-0.25625zm2.2938-0.475v3.9938h-1.15v-1.0625q-0.39375 0.6375-0.98125 0.94375-0.5875 0.3-1.4375 0.3-1.075 0-1.7125-0.6-0.63125-0.60625-0.63125-1.6188 0-1.1812 0.7875-1.7812 0.79375-0.6 2.3625-0.6h1.6125v-0.1125q0-0.79375-0.525-1.225-0.51875-0.4375-1.4625-0.4375-0.6 0-1.1688 0.14375t-1.0938 0.43125v-1.0625q0.63125-0.24375 1.225-0.3625 0.59375-0.125 1.1562-0.125 1.5188 0 2.2688 0.7875 0.75 0.7875 0.75 2.3875z" style=""/>
  <path id="path137" d="m250.44-4.19h1.1562v5.7438l3.4312-3.0188h1.4688l-3.7125 3.275 3.8688 3.725h-1.5l-3.5562-3.4188v3.4188h-1.1562z" style=""/>
  <path id="path139" d="m257.41-1.465h5.4625v1.05l-4.325 5.0313h4.325v0.91875h-5.6188v-1.05l4.325-5.0313h-4.1688z" style=""/>
  <path id="path141" d="m267.82 2.0163q-1.3938 0-1.9312 0.31875t-0.5375 1.0875q0 0.6125 0.4 0.975 0.40625 0.35625 1.1 0.35625 0.95625 0 1.5312-0.675 0.58125-0.68125 0.58125-1.8062v-0.25625zm2.2938-0.475v3.9938h-1.15v-1.0625q-0.39375 0.6375-0.98125 0.94375-0.5875 0.3-1.4375 0.3-1.075 0-1.7125-0.6-0.63125-0.60625-0.63125-1.6188 0-1.1812 0.7875-1.7812 0.79375-0.6 2.3625-0.6h1.6125v-0.1125q0-0.79375-0.525-1.225-0.51875-0.4375-1.4625-0.4375-0.6 0-1.1688 0.14375t-1.0938 0.43125v-1.0625q0.63125-0.24375 1.225-0.3625 0.59375-0.125 1.1562-0.125 1.5188 0 2.2688 0.7875 0.75 0.7875 0.75 2.3875z" style=""/>
  <path id="path143" d="m273.62-3.4525v1.9875h2.3688v0.89375h-2.3688v3.8q0 0.85625 0.23125 1.1 0.2375 0.24375 0.95625 0.24375h1.1812v0.9625h-1.1812q-1.3312 0-1.8375-0.49375-0.50625-0.5-0.50625-1.8125v-3.8h-0.84375v-0.89375h0.84375v-1.9875z" style=""/>
  <path id="path145" d="m282.32-2.2587-2.2438 1.2125 2.2438 1.2187-0.3625 0.6125-2.1-1.2688v2.3563h-0.7125v-2.3563l-2.1 1.2688-0.3625-0.6125 2.2438-1.2187-2.2438-1.2125 0.3625-0.61875 2.1 1.2688v-2.3563h0.7125v2.3563l2.1-1.2688z" style=""/>
  <path id="path147" d="m284.06-0.76495v-1.1375l8.0125 2.9062v1.0375l-8.0125 2.9063v-1.1375l6.4375-2.2812z" style=""/>
 </g>
 <g id="text8" aria-label="Kor">
  <path id="path151" d="m190.56 106.2h1.2625v3.9438l4.1875-3.9438h1.625l-4.6312 4.35 4.9625 4.9812h-1.6625l-4.4812-4.4938v4.4938h-1.2625z" style=""/>
  <path id="path153" d="m201 109.34q-0.925 0-1.4625 0.725-0.5375 0.71875-0.5375 1.975t0.53125 1.9812q0.5375 0.71875 1.4688 0.71875 0.91875 0 1.4562-0.725t0.5375-1.975q0-1.2438-0.5375-1.9688-0.5375-0.73125-1.4562-0.73125zm0-0.975q1.5 0 2.3562 0.975t0.85625 2.7q0 1.7188-0.85625 2.7-0.85625 0.975-2.3562 0.975-1.5062 0-2.3625-0.975-0.85-0.98125-0.85-2.7 0-1.725 0.85-2.7 0.85625-0.975 2.3625-0.975z" style=""/>
  <path id="path155" d="m210.17 109.61q-0.19375-0.1125-0.425-0.1625-0.225-0.0563-0.5-0.0563-0.975 0-1.5 0.6375-0.51875 0.63125-0.51875 1.8188v3.6875h-1.1562v-7h1.1562v1.0875q0.3625-0.6375 0.94375-0.94375 0.58125-0.3125 1.4125-0.3125 0.11875 0 0.2625 0.0188 0.14375 0.0125 0.31875 0.0437z" style=""/>
 </g>
 <g id="text12" aria-label="Teglalap">
  <path id="path158" d="m309.27 106.2h7.8938v1.0625h-3.3125v8.2688h-1.2688v-8.2688h-3.3125z" style=""/>
  <path id="path160" d="m322.15 111.75v0.5625h-5.2875q0.075 1.1875 0.7125 1.8125 0.64375 0.61875 1.7875 0.61875 0.6625 0 1.2812-0.1625 0.625-0.1625 1.2375-0.4875v1.0875q-0.61875 0.2625-1.2688 0.4t-1.3188 0.1375q-1.675 0-2.6562-0.975-0.975-0.975-0.975-2.6375 0-1.7188 0.925-2.725 0.93125-1.0125 2.5062-1.0125 1.4125 0 2.2312 0.9125 0.825 0.90625 0.825 2.4688zm-1.15-0.3375q-0.0125-0.94375-0.53125-1.5062-0.5125-0.5625-1.3625-0.5625-0.9625 0-1.5438 0.54375-0.575 0.54375-0.6625 1.5312z" style=""/>
  <path id="path162" d="m328.64 111.95q0-1.25-0.51875-1.9375-0.5125-0.6875-1.4438-0.6875-0.925 0-1.4438 0.6875-0.5125 0.6875-0.5125 1.9375 0 1.2438 0.5125 1.9312 0.51875 0.6875 1.4438 0.6875 0.93125 0 1.4438-0.6875 0.51875-0.6875 0.51875-1.9312zm1.15 2.7125q0 1.7875-0.79375 2.6562-0.79375 0.875-2.4312 0.875-0.60625 0-1.1438-0.0937-0.5375-0.0875-1.0438-0.275v-1.1188q0.50625 0.275 1 0.40625t1.0062 0.13125q1.1312 0 1.6938-0.59375 0.5625-0.5875 0.5625-1.7812v-0.56875q-0.35625 0.61875-0.9125 0.925t-1.3312 0.30625q-1.2875 0-2.075-0.98125t-0.7875-2.6q0-1.625 0.7875-2.6062t2.075-0.98125q0.775 0 1.3312 0.30625t0.9125 0.925v-1.0625h1.15z" style=""/>
  <path id="path164" d="m332.16 105.81h1.15v9.725h-1.15z" style=""/>
  <path id="path166" d="m338.89 112.02q-1.3938 0-1.9312 0.31875t-0.5375 1.0875q0 0.6125 0.4 0.975 0.40625 0.35625 1.1 0.35625 0.95625 0 1.5312-0.675 0.58125-0.68125 0.58125-1.8062v-0.25625zm2.2938-0.475v3.9938h-1.15v-1.0625q-0.39375 0.6375-0.98125 0.94375-0.5875 0.3-1.4375 0.3-1.075 0-1.7125-0.6-0.63125-0.60625-0.63125-1.6188 0-1.1812 0.7875-1.7812 0.79375-0.6 2.3625-0.6h1.6125v-0.1125q0-0.79375-0.525-1.225-0.51875-0.4375-1.4625-0.4375-0.6 0-1.1688 0.14375t-1.0938 0.43125v-1.0625q0.63125-0.24375 1.225-0.3625 0.59375-0.125 1.1562-0.125 1.5188 0 2.2688 0.7875t0.75 2.3875z" style=""/>
  <path id="path168" d="m343.56 105.81h1.15v9.725h-1.15z" style=""/>
  <path id="path170" d="m350.29 112.02q-1.3938 0-1.9312 0.31875t-0.5375 1.0875q0 0.6125 0.4 0.975 0.40625 0.35625 1.1 0.35625 0.95625 0 1.5312-0.675 0.58125-0.68125 0.58125-1.8062v-0.25625zm2.2938-0.475v3.9938h-1.15v-1.0625q-0.39375 0.6375-0.98125 0.94375-0.5875 0.3-1.4375 0.3-1.075 0-1.7125-0.6-0.63125-0.60625-0.63125-1.6188 0-1.1812 0.7875-1.7812 0.79375-0.6 2.3625-0.6h1.6125v-0.1125q0-0.79375-0.525-1.225-0.51875-0.4375-1.4625-0.4375-0.6 0-1.1688 0.14375t-1.0938 0.43125v-1.0625q0.63125-0.24375 1.225-0.3625 0.59375-0.125 1.1562-0.125 1.5188 0 2.2688 0.7875t0.75 2.3875z" style=""/>
  <path id="path172" d="m356.07 114.49v3.7125h-1.1562v-9.6625h1.1562v1.0625q0.3625-0.625 0.9125-0.925 0.55625-0.30625 1.325-0.30625 1.275 0 2.0688 1.0125 0.8 1.0125 0.8 2.6625t-0.8 2.6625q-0.79375 1.0125-2.0688 1.0125-0.76875 0-1.325-0.3-0.55-0.30625-0.9125-0.93125zm3.9125-2.4438q0-1.2688-0.525-1.9875-0.51875-0.725-1.4312-0.725t-1.4375 0.725q-0.51875 0.71875-0.51875 1.9875t0.51875 1.9938q0.525 0.71875 1.4375 0.71875t1.4312-0.71875q0.525-0.725 0.525-1.9938z" style=""/>
 </g>
 <g id="g22" transform="translate(-.69374 -4.465)">
  <path id="polygon14" d="m250 60h-90v-40h90z" fill="#ffa500"/>
  <path id="polygon16" d="m250 60h-90v-40h90z" fill="none" stroke="#000" stroke-width="2"/>
  <g id="text20" aria-label="alakzatok">
   <path id="path177" d="m178.62 40.481q-1.3938 0-1.9312 0.31875t-0.5375 1.0875q0 0.6125 0.4 0.975 0.40625 0.35625 1.1 0.35625 0.95625 0 1.5312-0.675 0.58125-0.68125 0.58125-1.8062v-0.25625zm2.2938-0.475v3.9938h-1.15v-1.0625q-0.39375 0.6375-0.98125 0.94375-0.5875 0.3-1.4375 0.3-1.075 0-1.7125-0.6-0.63125-0.60625-0.63125-1.6188 0-1.1812 0.7875-1.7812 0.79375-0.6 2.3625-0.6h1.6125v-0.1125q0-0.79375-0.525-1.225-0.51875-0.4375-1.4625-0.4375-0.6 0-1.1688 0.14375t-1.0938 0.43125v-1.0625q0.63125-0.24375 1.225-0.3625 0.59375-0.125 1.1562-0.125 1.5188 0 2.2688 0.7875t0.75 2.3875z" style=""/>
   <path id="path179" d="m183.29 34.275h1.15v9.725h-1.15z" style=""/>
   <path id="path181" d="m190.02 40.481q-1.3938 0-1.9312 0.31875t-0.5375 1.0875q0 0.6125 0.4 0.975 0.40625 0.35625 1.1 0.35625 0.95625 0 1.5312-0.675 0.58125-0.68125 0.58125-1.8062v-0.25625zm2.2938-0.475v3.9938h-1.15v-1.0625q-0.39375 0.6375-0.98125 0.94375-0.5875 0.3-1.4375 0.3-1.075 0-1.7125-0.6-0.63125-0.60625-0.63125-1.6188 0-1.1812 0.7875-1.7812 0.79375-0.6 2.3625-0.6h1.6125v-0.1125q0-0.79375-0.525-1.225-0.51875-0.4375-1.4625-0.4375-0.6 0-1.1688 0.14375t-1.0938 0.43125v-1.0625q0.63125-0.24375 1.225-0.3625 0.59375-0.125 1.1562-0.125 1.5188 0 2.2688 0.7875t0.75 2.3875z" style=""/>
   <path id="path183" d="m194.65 34.275h1.1562v5.7438l3.4312-3.0188h1.4688l-3.7125 3.275 3.8688 3.725h-1.5l-3.5562-3.4188v3.4188h-1.1562z" style=""/>
   <path id="path185" d="m201.62 37h5.4625v1.05l-4.325 5.0312h4.325v0.91875h-5.6188v-1.05l4.325-5.0312h-4.1688z" style=""/>
   <path id="path187" d="m212.02 40.481q-1.3938 0-1.9312 0.31875t-0.5375 1.0875q0 0.6125 0.4 0.975 0.40625 0.35625 1.1 0.35625 0.95625 0 1.5312-0.675 0.58125-0.68125 0.58125-1.8062v-0.25625zm2.2938-0.475v3.9938h-1.15v-1.0625q-0.39375 0.6375-0.98125 0.94375-0.5875 0.3-1.4375 0.3-1.075 0-1.7125-0.6-0.63125-0.60625-0.63125-1.6188 0-1.1812 0.7875-1.7812 0.79375-0.6 2.3625-0.6h1.6125v-0.1125q0-0.79375-0.525-1.225-0.51875-0.4375-1.4625-0.4375-0.6 0-1.1688 0.14375t-1.0938 0.43125v-1.0625q0.63125-0.24375 1.225-0.3625 0.59375-0.125 1.1562-0.125 1.5188 0 2.2688 0.7875t0.75 2.3875z" style=""/>
   <path id="path189" d="m217.83 35.012v1.9875h2.3688v0.89375h-2.3688v3.8q0 0.85625 0.23125 1.1 0.2375 0.24375 0.95625 0.24375h1.1812v0.9625h-1.1812q-1.3312 0-1.8375-0.49375-0.50625-0.5-0.50625-1.8125v-3.8h-0.84375v-0.89375h0.84375v-1.9875z" style=""/>
   <path id="path191" d="m224.43 37.806q-0.925 0-1.4625 0.725-0.5375 0.71875-0.5375 1.975t0.53125 1.9812q0.5375 0.71875 1.4688 0.71875 0.91875 0 1.4562-0.725t0.5375-1.975q0-1.2438-0.5375-1.9688-0.5375-0.73125-1.4562-0.73125zm0-0.975q1.5 0 2.3562 0.975t0.85625 2.7q0 1.7188-0.85625 2.7-0.85625 0.975-2.3562 0.975-1.5062 0-2.3625-0.975-0.85-0.98125-0.85-2.7 0-1.725 0.85-2.7 0.85625-0.975 2.3625-0.975z" style=""/>
   <path id="path193" d="m229.5 34.275h1.1562v5.7438l3.4312-3.0188h1.4688l-3.7125 3.275 3.8688 3.725h-1.5l-3.5562-3.4188v3.4188h-1.1562z" style=""/>
  </g>
 </g>
 <g id="text26" aria-label="Cimke">
  <path id="path196" d="m467.55 106.92v1.3312q-0.6375-0.59375-1.3625-0.8875-0.71875-0.29375-1.5312-0.29375-1.6 0-2.45 0.98125-0.85 0.975-0.85 2.825 0 1.8438 0.85 2.825 0.85 0.975 2.45 0.975 0.8125 0 1.5312-0.29375 0.725-0.29375 1.3625-0.8875v1.3188q-0.6625 0.45-1.4062 0.675-0.7375 0.225-1.5625 0.225-2.1188 0-3.3375-1.2938-1.2188-1.3-1.2188-3.5438 0-2.25 1.2188-3.5438 1.2188-1.3 3.3375-1.3 0.8375 0 1.575 0.225 0.74375 0.21875 1.3938 0.6625z" style=""/>
  <path id="path198" d="m469.46 108.54h1.15v7h-1.15zm0-2.725h1.15v1.4562h-1.15z" style=""/>
  <path id="path200" d="m478.46 109.88q0.43125-0.775 1.0312-1.1438t1.4125-0.36875q1.0938 0 1.6875 0.76875 0.59375 0.7625 0.59375 2.175v4.225h-1.1562v-4.1875q0-1.0062-0.35625-1.4938t-1.0875-0.4875q-0.89375 0-1.4125 0.59375t-0.51875 1.6188v3.9562h-1.1562v-4.1875q0-1.0125-0.35625-1.4938-0.35625-0.4875-1.1-0.4875-0.88125 0-1.4 0.6-0.51875 0.59375-0.51875 1.6125v3.9562h-1.1562v-7h1.1562v1.0875q0.39375-0.64375 0.94375-0.95t1.3062-0.30625q0.7625 0 1.2938 0.3875 0.5375 0.3875 0.79375 1.125z" style=""/>
  <path id="path202" d="m485.44 105.81h1.1562v5.7438l3.4312-3.0188h1.4688l-3.7125 3.275 3.8688 3.725h-1.5l-3.5562-3.4188v3.4188h-1.1562z" style=""/>
  <path id="path204" d="m498.45 111.75v0.5625h-5.2875q0.075 1.1875 0.7125 1.8125 0.64375 0.61875 1.7875 0.61875 0.6625 0 1.2812-0.1625 0.625-0.1625 1.2375-0.4875v1.0875q-0.61875 0.2625-1.2688 0.4t-1.3188 0.1375q-1.675 0-2.6562-0.975-0.975-0.975-0.975-2.6375 0-1.7188 0.925-2.725 0.93125-1.0125 2.5062-1.0125 1.4125 0 2.2312 0.9125 0.825 0.90625 0.825 2.4688zm-1.15-0.3375q-0.0125-0.94375-0.53125-1.5062-0.5125-0.5625-1.3625-0.5625-0.9625 0-1.5438 0.54375-0.575 0.54375-0.6625 1.5312z" style=""/>
 </g>
 <g id="g58" transform="translate(-.69374 -4.465)">
  <g id="g36">
   <path id="polygon28" d="m360 60h-40v-40h40z" fill="#fdfd04"/>
   <path id="polygon30" d="m360 60h-40v-40h40z" fill="none" stroke="#000" stroke-width="2"/>
  </g>
  <g id="g46">
   <path id="polygon38" d="m400 60h-40v-40h40z" fill="#fdfd04"/>
   <path id="polygon40" d="m400 60h-40v-40h40z" fill="none" stroke="#000" stroke-width="2"/>
  </g>
  <g id="g56">
   <path id="polygon48" d="m440 60h-40v-40h40z" fill="#fdfd04"/>
   <path id="polygon50" d="m440 60h-40v-40h40z" fill="none" stroke="#000" stroke-width="2"/>
  </g>
 </g>
 <g id="g90" transform="translate(-.69374 -4.465)">
  <g id="g68">
   <path id="polygon60" d="m300 140h-80v-40h80z" fill="#0f0"/>
   <path id="polygon62" d="m300 140h-80v-40h80z" fill="none" stroke="#000" stroke-width="2"/>
   <g id="text66" aria-label="szin">
    <path id="path218" d="m253.13 117.21v1.0875q-0.4875-0.25-1.0125-0.375t-1.0875-0.125q-0.85625 0-1.2875 0.2625-0.425 0.2625-0.425 0.7875 0 0.4 0.30625 0.63125 0.30625 0.225 1.2312 0.43125l0.39375 0.0875q1.225 0.2625 1.7375 0.74375 0.51875 0.475 0.51875 1.3312 0 0.975-0.775 1.5438-0.76875 0.56875-2.1188 0.56875-0.5625 0-1.175-0.1125-0.60625-0.10625-1.2812-0.325v-1.1875q0.6375 0.33125 1.2562 0.5 0.61875 0.1625 1.225 0.1625 0.8125 0 1.25-0.275 0.4375-0.28125 0.4375-0.7875 0-0.46875-0.31875-0.71875-0.3125-0.25-1.3812-0.48125l-0.4-0.0937q-1.0688-0.225-1.5438-0.6875-0.475-0.46875-0.475-1.2812 0-0.9875 0.7-1.525t1.9875-0.5375q0.6375 0 1.2 0.0937t1.0375 0.28125z" style=""/>
    <path id="path220" d="m254.84 117h5.4625v1.05l-4.325 5.0312h4.325v0.91875h-5.6188v-1.05l4.325-5.0312h-4.1688z" style=""/>
    <path id="path222" d="m262.07 117h1.15v7h-1.15zm0-2.725h1.15v1.4562h-1.15z" style=""/>
    <path id="path224" d="m271.44 119.78v4.225h-1.15v-4.1875q0-0.99375-0.3875-1.4875t-1.1625-0.49375q-0.93125 0-1.4688 0.59375t-0.5375 1.6188v3.9562h-1.1562v-7h1.1562v1.0875q0.4125-0.63125 0.96875-0.94375 0.5625-0.3125 1.2938-0.3125 1.2062 0 1.825 0.75 0.61875 0.74375 0.61875 2.1938z" style=""/>
   </g>
  </g>
  <g id="g78">
   <path id="polygon70" d="m300 180h-80v-40h80z" fill="#0f0"/>
   <path id="polygon72" d="m300 180h-80v-40h80z" fill="none" stroke="#000" stroke-width="2"/>
   <g id="text76" aria-label="pont">
    <path id="path229" d="m247.77 162.95v3.7125h-1.1562v-9.6625h1.1562v1.0625q0.3625-0.625 0.9125-0.925 0.55625-0.30625 1.325-0.30625 1.275 0 2.0688 1.0125 0.8 1.0125 0.8 2.6625t-0.8 2.6625q-0.79375 1.0125-2.0688 1.0125-0.76875 0-1.325-0.3-0.55-0.30625-0.9125-0.93125zm3.9125-2.4438q0-1.2688-0.525-1.9875-0.51875-0.725-1.4312-0.725t-1.4375 0.725q-0.51875 0.71875-0.51875 1.9875t0.51875 1.9938q0.525 0.71875 1.4375 0.71875t1.4312-0.71875q0.525-0.725 0.525-1.9938z" style=""/>
    <path id="path231" d="m257.49 157.81q-0.925 0-1.4625 0.725-0.5375 0.71875-0.5375 1.975t0.53125 1.9812q0.5375 0.71875 1.4688 0.71875 0.91875 0 1.4562-0.725t0.5375-1.975q0-1.2438-0.5375-1.9688-0.5375-0.73125-1.4562-0.73125zm0-0.975q1.5 0 2.3562 0.975t0.85625 2.7q0 1.7188-0.85625 2.7-0.85625 0.975-2.3562 0.975-1.5062 0-2.3625-0.975-0.85-0.98125-0.85-2.7 0-1.725 0.85-2.7 0.85625-0.975 2.3625-0.975z" style=""/>
    <path id="path233" d="m268.42 159.78v4.225h-1.15v-4.1875q0-0.99375-0.3875-1.4875t-1.1625-0.49375q-0.93125 0-1.4688 0.59375t-0.5375 1.6188v3.9562h-1.1562v-7h1.1562v1.0875q0.4125-0.63125 0.96875-0.94375 0.5625-0.3125 1.2938-0.3125 1.2062 0 1.825 0.75 0.61875 0.74375 0.61875 2.1938z" style=""/>
    <path id="path235" d="m271.87 155.01v1.9875h2.3688v0.89375h-2.3688v3.8q0 0.85625 0.23125 1.1 0.2375 0.24375 0.95625 0.24375h1.1812v0.9625h-1.1812q-1.3312 0-1.8375-0.49375-0.50625-0.5-0.50625-1.8125v-3.8h-0.84375v-0.89375h0.84375v-1.9875z" style=""/>
   </g>
  </g>
  <g id="g88">
   <path id="polygon80" d="m300 220h-80v-40h80z" fill="#1e90ff"/>
   <path id="polygon82" d="m300 220h-80v-40h80z" fill="none" stroke="#000" stroke-width="2"/>
   <g id="text86" aria-label="sugar">
    <path id="path240" d="m247.64 197.21v1.0875q-0.4875-0.25-1.0125-0.375t-1.0875-0.125q-0.85625 0-1.2875 0.2625-0.425 0.2625-0.425 0.7875 0 0.4 0.30625 0.63125 0.30625 0.225 1.2312 0.43125l0.39375 0.0875q1.225 0.2625 1.7375 0.74375 0.51875 0.475 0.51875 1.3312 0 0.975-0.775 1.5438-0.76875 0.56875-2.1188 0.56875-0.5625 0-1.175-0.1125-0.60625-0.10625-1.2812-0.325v-1.1875q0.6375 0.33125 1.2562 0.5 0.61875 0.1625 1.225 0.1625 0.8125 0 1.25-0.275 0.4375-0.28125 0.4375-0.7875 0-0.46875-0.31875-0.71875-0.3125-0.25-1.3812-0.48125l-0.4-0.0937q-1.0688-0.225-1.5438-0.6875-0.475-0.46875-0.475-1.2812 0-0.9875 0.7-1.525t1.9875-0.5375q0.6375 0 1.2 0.0937t1.0375 0.28125z" style=""/>
    <path id="path242" d="m249.74 201.24v-4.2375h1.15v4.1938q0 0.99375 0.3875 1.4938 0.3875 0.49375 1.1625 0.49375 0.93125 0 1.4688-0.59375 0.54375-0.59375 0.54375-1.6188v-3.9688h1.15v7h-1.15v-1.075q-0.41875 0.6375-0.975 0.95-0.55 0.30625-1.2812 0.30625-1.2062 0-1.8312-0.75t-0.625-2.1938z" style=""/>
    <path id="path244" d="m262.59 200.42q0-1.25-0.51875-1.9375-0.5125-0.6875-1.4438-0.6875-0.925 0-1.4438 0.6875-0.5125 0.6875-0.5125 1.9375 0 1.2438 0.5125 1.9312 0.51875 0.6875 1.4438 0.6875 0.93125 0 1.4438-0.6875 0.51875-0.6875 0.51875-1.9312zm1.15 2.7125q0 1.7875-0.79375 2.6562-0.79375 0.875-2.4312 0.875-0.60625 0-1.1438-0.0937-0.5375-0.0875-1.0438-0.275v-1.1188q0.50625 0.275 1 0.40625t1.0062 0.13125q1.1312 0 1.6938-0.59375 0.5625-0.5875 0.5625-1.7812v-0.56875q-0.35625 0.61875-0.9125 0.925t-1.3312 0.30625q-1.2875 0-2.075-0.98125t-0.7875-2.6q0-1.625 0.7875-2.6062t2.075-0.98125q0.775 0 1.3312 0.30625t0.9125 0.925v-1.0625h1.15z" style=""/>
    <path id="path246" d="m269.29 200.48q-1.3938 0-1.9312 0.31875t-0.5375 1.0875q0 0.6125 0.4 0.975 0.40625 0.35625 1.1 0.35625 0.95625 0 1.5312-0.675 0.58125-0.68125 0.58125-1.8062v-0.25625zm2.2938-0.475v3.9938h-1.15v-1.0625q-0.39375 0.6375-0.98125 0.94375-0.5875 0.3-1.4375 0.3-1.075 0-1.7125-0.6-0.63125-0.60625-0.63125-1.6188 0-1.1812 0.7875-1.7812 0.79375-0.6 2.3625-0.6h1.6125v-0.1125q0-0.79375-0.525-1.225-0.51875-0.4375-1.4625-0.4375-0.6 0-1.1688 0.14375t-1.0938 0.43125v-1.0625q0.63125-0.24375 1.225-0.3625 0.59375-0.125 1.1562-0.125 1.5188 0 2.2688 0.7875t0.75 2.3875z" style=""/>
    <path id="path248" d="m278.01 198.08q-0.19375-0.1125-0.425-0.1625-0.225-0.0563-0.5-0.0563-0.975 0-1.5 0.6375-0.51875 0.63125-0.51875 1.8188v3.6876h-1.1562v-7h1.1562v1.0875q0.3625-0.6375 0.94375-0.94375 0.58125-0.3125 1.4125-0.3125 0.11875 0 0.2625 0.0187 0.14375 0.0125 0.31875 0.0438z" style=""/>
   </g>
  </g>
 </g>
 <g id="g132" transform="translate(-.69374 -4.465)">
  <g id="g100">
   <path id="polygon92" d="m450 140h-80v-40h80z" fill="#0f0"/>
   <path id="polygon94" d="m450 140h-80v-40h80z" fill="none" stroke="#000" stroke-width="2"/>
   <g id="text98" aria-label="szin">
    <path id="path253" d="m403.13 117.21v1.0875q-0.4875-0.25-1.0125-0.375t-1.0875-0.125q-0.85625 0-1.2875 0.2625-0.425 0.2625-0.425 0.7875 0 0.4 0.30625 0.63125 0.30625 0.225 1.2312 0.43125l0.39375 0.0875q1.225 0.2625 1.7375 0.74375 0.51875 0.475 0.51875 1.3312 0 0.975-0.775 1.5438-0.76875 0.56875-2.1188 0.56875-0.5625 0-1.175-0.1125-0.60625-0.10625-1.2812-0.325v-1.1875q0.6375 0.33125 1.2562 0.5 0.61875 0.1625 1.225 0.1625 0.8125 0 1.25-0.275 0.4375-0.28125 0.4375-0.7875 0-0.46875-0.31875-0.71875-0.3125-0.25-1.3812-0.48125l-0.4-0.0937q-1.0688-0.225-1.5438-0.6875-0.475-0.46875-0.475-1.2812 0-0.9875 0.7-1.525t1.9875-0.5375q0.6375 0 1.2 0.0937t1.0375 0.28125z" style=""/>
    <path id="path255" d="m404.84 117h5.4625v1.05l-4.325 5.0312h4.325v0.91875h-5.6188v-1.05l4.325-5.0312h-4.1688z" style=""/>
    <path id="path257" d="m412.07 117h1.15v7h-1.15zm0-2.725h1.15v1.4562h-1.15z" style=""/>
    <path id="path259" d="m421.44 119.78v4.225h-1.15v-4.1875q0-0.99375-0.3875-1.4875t-1.1625-0.49375q-0.93125 0-1.4688 0.59375t-0.5375 1.6188v3.9562h-1.1562v-7h1.1562v1.0875q0.4125-0.63125 0.96875-0.94375 0.5625-0.3125 1.2938-0.3125 1.2062 0 1.825 0.75 0.61875 0.74375 0.61875 2.1938z" style=""/>
   </g>
  </g>
  <g id="g110">
   <path id="polygon102" d="m450 180h-80v-40h80z" fill="#0f0"/>
   <path id="polygon104" d="m450 180h-80v-40h80z" fill="none" stroke="#000" stroke-width="2"/>
   <g id="text108" aria-label="pont">
    <path id="path264" d="m397.77 162.95v3.7125h-1.1562v-9.6625h1.1562v1.0625q0.3625-0.625 0.9125-0.925 0.55625-0.30625 1.325-0.30625 1.275 0 2.0688 1.0125 0.8 1.0125 0.8 2.6625t-0.8 2.6625q-0.79375 1.0125-2.0688 1.0125-0.76875 0-1.325-0.3-0.55-0.30625-0.9125-0.93125zm3.9125-2.4438q0-1.2688-0.525-1.9875-0.51875-0.725-1.4312-0.725t-1.4375 0.725q-0.51875 0.71875-0.51875 1.9875t0.51875 1.9938q0.525 0.71875 1.4375 0.71875t1.4312-0.71875q0.525-0.725 0.525-1.9938z" style=""/>
    <path id="path266" d="m407.49 157.81q-0.925 0-1.4625 0.725-0.5375 0.71875-0.5375 1.975t0.53125 1.9812q0.5375 0.71875 1.4688 0.71875 0.91875 0 1.4562-0.725t0.5375-1.975q0-1.2438-0.5375-1.9688-0.5375-0.73125-1.4562-0.73125zm0-0.975q1.5 0 2.3562 0.975t0.85625 2.7q0 1.7188-0.85625 2.7-0.85625 0.975-2.3562 0.975-1.5062 0-2.3625-0.975-0.85-0.98125-0.85-2.7 0-1.725 0.85-2.7 0.85625-0.975 2.3625-0.975z" style=""/>
    <path id="path268" d="m418.42 159.78v4.225h-1.15v-4.1875q0-0.99375-0.3875-1.4875t-1.1625-0.49375q-0.93125 0-1.4688 0.59375t-0.5375 1.6188v3.9562h-1.1562v-7h1.1562v1.0875q0.4125-0.63125 0.96875-0.94375 0.5625-0.3125 1.2938-0.3125 1.2062 0 1.825 0.75 0.61875 0.74375 0.61875 2.1938z" style=""/>
    <path id="path270" d="m421.87 155.01v1.9875h2.3688v0.89375h-2.3688v3.8q0 0.85625 0.23125 1.1 0.2375 0.24375 0.95625 0.24375h1.1812v0.9625h-1.1812q-1.3312 0-1.8375-0.49375-0.50625-0.5-0.50625-1.8125v-3.8h-0.84375v-0.89375h0.84375v-1.9875z" style=""/>
   </g>
  </g>
  <g id="g120">
   <path id="polygon112" d="m450 220h-80v-40h80z" fill="#f00"/>
   <path id="polygon114" d="m450 220h-80v-40h80z" fill="none" stroke="#000" stroke-width="2"/>
   <g id="text118" aria-label="a">
    <path id="path275" d="m410.46 200.48q-1.3938 0-1.9312 0.31875t-0.5375 1.0875q0 0.6125 0.4 0.975 0.40625 0.35625 1.1 0.35625 0.95625 0 1.5312-0.675 0.58125-0.68125 0.58125-1.8062v-0.25625zm2.2938-0.475v3.9938h-1.15v-1.0625q-0.39375 0.6375-0.98125 0.94375-0.5875 0.3-1.4375 0.3-1.075 0-1.7125-0.6-0.63125-0.60625-0.63125-1.6188 0-1.1812 0.7875-1.7812 0.79375-0.6 2.3625-0.6h1.6125v-0.1125q0-0.79375-0.525-1.225-0.51875-0.4375-1.4625-0.4375-0.6 0-1.1688 0.14375t-1.0938 0.43125v-1.0625q0.63125-0.24375 1.225-0.3625 0.59375-0.125 1.1562-0.125 1.5188 0 2.2688 0.7875t0.75 2.3875z" style=""/>
   </g>
  </g>
  <g id="g130">
   <path id="polygon122" d="m450 260h-80v-40h80z" fill="#f00"/>
   <path id="polygon124" d="m450 260h-80v-40h80z" fill="none" stroke="#000" stroke-width="2"/>
   <g id="text128" aria-label="b">
    <path id="path280" d="m412.17 240.51q0-1.2688-0.525-1.9875-0.51875-0.725-1.4312-0.725t-1.4375 0.725q-0.51875 0.71875-0.51875 1.9875t0.51875 1.9938q0.525 0.71875 1.4375 0.71875t1.4312-0.71875q0.525-0.725 0.525-1.9938zm-3.9125-2.4438q0.3625-0.625 0.9125-0.925 0.55625-0.30625 1.325-0.30625 1.275 0 2.0688 1.0125 0.8 1.0125 0.8 2.6625t-0.8 2.6625q-0.79375 1.0125-2.0688 1.0125-0.76875 0-1.325-0.3-0.55-0.30625-0.9125-0.93125v1.05h-1.1562v-9.725h1.1562z" style=""/>
   </g>
  </g>
 </g>
 <g id="g140" transform="translate(-.69374 -4.465)">
  <path id="path134" d="m340 60c0 20-80 0-80 30.264" fill="none" stroke="#000" stroke-width="2"/>
  <path id="polygon136" d="m260 90.264 5-2.5-5 10-5-10z"/>
  <path id="polygon138" d="m260 90.264 5-2.5-5 10-5-10z" fill="none" stroke="#000" stroke-width="2"/>
 </g>
 <g id="g148" transform="translate(-.69374 -4.465)">
  <path id="path142" d="m380 60c0 20 30 10 30 30.264" fill="none" stroke="#000" stroke-width="2"/>
  <path id="polygon144" d="m410 90.264 5-2.5-5 10-5-10z"/>
  <path id="polygon146" d="m410 90.264 5-2.5-5 10-5-10z" fill="none" stroke="#000" stroke-width="2"/>
 </g>
 <g id="g156" transform="translate(-.69374 -4.465)">
  <path id="path150" d="m420 60c0 20 130 0 130 30.264" fill="none" stroke="#000" stroke-width="2"/>
  <path id="polygon152" d="m550 90.264 5-2.5-5 10-5-10z"/>
  <path id="polygon154" d="m550 90.264 5-2.5-5 10-5-10z" fill="none" stroke="#000" stroke-width="2"/>
 </g>
 <g id="text160" aria-label="Alakzat*">
  <path id="path289" d="m323.68-2.5525-1.7125 4.6438h3.4312zm-0.7125-1.2438h1.4312l3.5562 9.3313h-1.3125l-0.85-2.3938h-4.2062l-0.85 2.3938h-1.3312z" style=""/>
  <path id="path291" d="m329.26-4.19h1.15v9.725h-1.15z" style=""/>
  <path id="path293" d="m335.99 2.0163q-1.3938 0-1.9312 0.31875t-0.5375 1.0875q0 0.6125 0.4 0.975 0.40625 0.35625 1.1 0.35625 0.95625 0 1.5312-0.675 0.58125-0.68125 0.58125-1.8062v-0.25625zm2.2938-0.475v3.9938h-1.15v-1.0625q-0.39375 0.6375-0.98125 0.94375-0.5875 0.3-1.4375 0.3-1.075 0-1.7125-0.6-0.63125-0.60625-0.63125-1.6188 0-1.1812 0.7875-1.7812 0.79375-0.6 2.3625-0.6h1.6125v-0.1125q0-0.79375-0.525-1.225-0.51875-0.4375-1.4625-0.4375-0.6 0-1.1688 0.14375t-1.0938 0.43125v-1.0625q0.63125-0.24375 1.225-0.3625 0.59375-0.125 1.1562-0.125 1.5188 0 2.2688 0.7875 0.75 0.7875 0.75 2.3875z" style=""/>
  <path id="path295" d="m340.62-4.19h1.1562v5.7438l3.4312-3.0188h1.4688l-3.7125 3.275 3.8688 3.725h-1.5l-3.5562-3.4188v3.4188h-1.1562z" style=""/>
  <path id="path297" d="m347.59-1.465h5.4625v1.05l-4.325 5.0313h4.325v0.91875h-5.6188v-1.05l4.325-5.0313h-4.1688z" style=""/>
  <path id="path299" d="m357.99 2.0163q-1.3938 0-1.9312 0.31875t-0.5375 1.0875q0 0.6125 0.4 0.975 0.40625 0.35625 1.1 0.35625 0.95625 0 1.5312-0.675 0.58125-0.68125 0.58125-1.8062v-0.25625zm2.2938-0.475v3.9938h-1.15v-1.0625q-0.39375 0.6375-0.98125 0.94375-0.5875 0.3-1.4375 0.3-1.075 0-1.7125-0.6-0.63125-0.60625-0.63125-1.6188 0-1.1812 0.7875-1.7812 0.79375-0.6 2.3625-0.6h1.6125v-0.1125q0-0.79375-0.525-1.225-0.51875-0.4375-1.4625-0.4375-0.6 0-1.1688 0.14375t-1.0938 0.43125v-1.0625q0.63125-0.24375 1.225-0.3625 0.59375-0.125 1.1562-0.125 1.5188 0 2.2688 0.7875 0.75 0.7875 0.75 2.3875z" style=""/>
  <path id="path301" d="m363.8-3.4525v1.9875h2.3688v0.89375h-2.3688v3.8q0 0.85625 0.23125 1.1 0.2375 0.24375 0.95625 0.24375h1.1812v0.9625h-1.1812q-1.3312 0-1.8375-0.49375-0.50625-0.5-0.50625-1.8125v-3.8h-0.84375v-0.89375h0.84375v-1.9875z" style=""/>
  <path id="path303" d="m372.5-2.2587-2.2438 1.2125 2.2438 1.2187-0.3625 0.6125-2.1-1.2688v2.3563h-0.7125v-2.3563l-2.1 1.2688-0.3625-0.6125 2.2438-1.2187-2.2438-1.2125 0.3625-0.61875 2.1 1.2688v-2.3563h0.7125v2.3563l2.1-1.2688z" style=""/>
 </g>
 <g id="g168" transform="translate(-.69374 -4.465)">
  <path id="line162" d="m250.95 40h58.316" fill="none" stroke="#000" stroke-width="2"/>
  <path id="polygon164" d="m309.26 40-2.5-5 10 5-10 5z"/>
  <path id="polygon166" d="m309.26 40-2.5-5 10 5-10 5z" fill="none" stroke="#000" stroke-width="2"/>
 </g>
 <g id="g200" transform="translate(-.69374 -4.465)">
  <g id="g178">
   <path id="polygon170" d="m590 180h-80v-40h80z" fill="#0f0"/>
   <path id="polygon172" d="m590 180h-80v-40h80z" fill="none" stroke="#000" stroke-width="2"/>
   <g id="text176" aria-label="pont">
    <path id="path311" d="m537.77 162.95v3.7125h-1.1562v-9.6625h1.1562v1.0625q0.3625-0.625 0.9125-0.925 0.55625-0.30625 1.325-0.30625 1.275 0 2.0688 1.0125 0.8 1.0125 0.8 2.6625t-0.8 2.6625q-0.79375 1.0125-2.0688 1.0125-0.76875 0-1.325-0.3-0.55-0.30625-0.9125-0.93125zm3.9125-2.4438q0-1.2688-0.525-1.9875-0.51875-0.725-1.4312-0.725t-1.4375 0.725q-0.51875 0.71875-0.51875 1.9875t0.51875 1.9938q0.525 0.71875 1.4375 0.71875t1.4312-0.71875q0.525-0.725 0.525-1.9938z" style=""/>
    <path id="path313" d="m547.49 157.81q-0.925 0-1.4625 0.725-0.5375 0.71875-0.5375 1.975t0.53125 1.9812q0.5375 0.71875 1.4688 0.71875 0.91875 0 1.4562-0.725t0.5375-1.975q0-1.2438-0.5375-1.9688-0.5375-0.73125-1.4562-0.73125zm0-0.975q1.5 0 2.3562 0.975t0.85625 2.7q0 1.7188-0.85625 2.7-0.85625 0.975-2.3562 0.975-1.5062 0-2.3625-0.975-0.85-0.98125-0.85-2.7 0-1.725 0.85-2.7 0.85625-0.975 2.3625-0.975z" style=""/>
    <path id="path315" d="m558.42 159.78v4.225h-1.15v-4.1875q0-0.99375-0.3875-1.4875t-1.1625-0.49375q-0.93125 0-1.4688 0.59375t-0.5375 1.6188v3.9562h-1.1562v-7h1.1562v1.0875q0.4125-0.63125 0.96875-0.94375 0.5625-0.3125 1.2938-0.3125 1.2062 0 1.825 0.75 0.61875 0.74375 0.61875 2.1938z" style=""/>
    <path id="path317" d="m561.87 155.01v1.9875h2.3688v0.89375h-2.3688v3.8q0 0.85625 0.23125 1.1 0.2375 0.24375 0.95625 0.24375h1.1812v0.9625h-1.1812q-1.3312 0-1.8375-0.49375-0.50625-0.5-0.50625-1.8125v-3.8h-0.84375v-0.89375h0.84375v-1.9875z" style=""/>
   </g>
  </g>
  <g id="g188">
   <path id="polygon180" d="m590 140h-80v-40h80z" fill="#0f0"/>
   <path id="polygon182" d="m590 140h-80v-40h80z" fill="none" stroke="#000" stroke-width="2"/>
   <g id="text186" aria-label="szin">
    <path id="path322" d="m543.13 117.21v1.0875q-0.4875-0.25-1.0125-0.375t-1.0875-0.125q-0.85625 0-1.2875 0.2625-0.425 0.2625-0.425 0.7875 0 0.4 0.30625 0.63125 0.30625 0.225 1.2312 0.43125l0.39375 0.0875q1.225 0.2625 1.7375 0.74375 0.51875 0.475 0.51875 1.3312 0 0.975-0.775 1.5438-0.76875 0.56875-2.1188 0.56875-0.5625 0-1.175-0.1125-0.60625-0.10625-1.2812-0.325v-1.1875q0.6375 0.33125 1.2562 0.5 0.61875 0.1625 1.225 0.1625 0.8125 0 1.25-0.275 0.4375-0.28125 0.4375-0.7875 0-0.46875-0.31875-0.71875-0.3125-0.25-1.3812-0.48125l-0.4-0.0937q-1.0688-0.225-1.5438-0.6875-0.475-0.46875-0.475-1.2812 0-0.9875 0.7-1.525t1.9875-0.5375q0.6375 0 1.2 0.0937t1.0375 0.28125z" style=""/>
    <path id="path324" d="m544.84 117h5.4625v1.05l-4.325 5.0312h4.325v0.91875h-5.6188v-1.05l4.325-5.0312h-4.1688z" style=""/>
    <path id="path326" d="m552.07 117h1.15v7h-1.15zm0-2.725h1.15v1.4562h-1.15z" style=""/>
    <path id="path328" d="m561.44 119.78v4.225h-1.15v-4.1875q0-0.99375-0.3875-1.4875t-1.1625-0.49375q-0.93125 0-1.4688 0.59375t-0.5375 1.6188v3.9562h-1.1562v-7h1.1562v1.0875q0.4125-0.63125 0.96875-0.94375 0.5625-0.3125 1.2938-0.3125 1.2062 0 1.825 0.75 0.61875 0.74375 0.61875 2.1938z" style=""/>
   </g>
  </g>
  <g id="g198">
   <path id="polygon190" d="m590 300h-80v-120h80z" fill="#ccc"/>
   <path id="polygon192" d="m590 300h-80v-120h80z" fill="none" stroke="#000" stroke-width="2"/>
   <g id="text196" aria-label="???">
    <path id="path333" d="m542.24 242.41h1.2688v1.5875h-1.2688zm1.2312-0.91875h-1.1938v-0.9625q0-0.63125 0.175-1.0375t0.7375-0.94375l0.5625-0.55625q0.35625-0.33125 0.5125-0.625 0.1625-0.29375 0.1625-0.6 0-0.55625-0.4125-0.9-0.40625-0.34375-1.0812-0.34375-0.49375 0-1.0562 0.21875-0.55625 0.21875-1.1625 0.6375v-1.175q0.5875-0.35625 1.1875-0.53125 0.60625-0.175 1.25-0.175 1.15 0 1.8438 0.60625 0.7 0.60625 0.7 1.6 0 0.475-0.225 0.90625-0.225 0.425-0.7875 0.9625l-0.55 0.5375q-0.29375 0.29375-0.41875 0.4625-0.11875 0.1625-0.16875 0.31875-0.0375 0.13125-0.0562 0.31875t-0.0187 0.5125z" style=""/>
    <path id="path335" d="m549.04 242.41h1.2688v1.5875h-1.2688zm1.2312-0.91875h-1.1938v-0.9625q0-0.63125 0.175-1.0375t0.7375-0.94375l0.5625-0.55625q0.35625-0.33125 0.5125-0.625 0.1625-0.29375 0.1625-0.6 0-0.55625-0.4125-0.9-0.40625-0.34375-1.0812-0.34375-0.49375 0-1.0562 0.21875-0.55625 0.21875-1.1625 0.6375v-1.175q0.5875-0.35625 1.1875-0.53125 0.60625-0.175 1.25-0.175 1.15 0 1.8438 0.60625 0.7 0.60625 0.7 1.6 0 0.475-0.225 0.90625-0.225 0.425-0.7875 0.9625l-0.55 0.5375q-0.29375 0.29375-0.41875 0.4625-0.11875 0.1625-0.16875 0.31875-0.0375 0.13125-0.0562 0.31875-0.0188 0.1875-0.0188 0.5125z" style=""/>
    <path id="path337" d="m555.84 242.41h1.2688v1.5875h-1.2688zm1.2312-0.91875h-1.1938v-0.9625q0-0.63125 0.175-1.0375t0.7375-0.94375l0.5625-0.55625q0.35625-0.33125 0.5125-0.625 0.1625-0.29375 0.1625-0.6 0-0.55625-0.4125-0.9-0.40625-0.34375-1.0812-0.34375-0.49375 0-1.0562 0.21875-0.55625 0.21875-1.1625 0.6375v-1.175q0.5875-0.35625 1.1875-0.53125 0.60625-0.175 1.25-0.175 1.15 0 1.8438 0.60625 0.7 0.60625 0.7 1.6 0 0.475-0.225 0.90625-0.225 0.425-0.7875 0.9625l-0.55 0.5375q-0.29375 0.29375-0.41875 0.4625-0.11875 0.1625-0.16875 0.31875-0.0375 0.13125-0.0562 0.31875t-0.0187 0.5125z" style=""/>
   </g>
  </g>
 </g>
</svg>
