<?xml version="1.0" encoding="UTF-8"?>
<svg id="svg131" width="14.949cm" height="9.3174cm" version="1.1" viewBox="188 68 292 170.51" xmlns="http://www.w3.org/2000/svg" xmlns:cc="http://creativecommons.org/ns#" xmlns:dc="http://purl.org/dc/elements/1.1/" xmlns:rdf="http://www.w3.org/1999/02/22-rdf-syntax-ns#">
 <metadata id="metadata135">
  <rdf:RDF>
   <cc:Work rdf:about="">
    <dc:format>image/svg+xml</dc:format>
    <dc:type rdf:resource="http://purl.org/dc/dcmitype/StillImage"/>
   </cc:Work>
  </rdf:RDF>
 </metadata>
 <g id="Háttér" transform="translate(-1 -6.7457)">
  <path id="rect4" d="m340 70c11.08 0 20 8.92 20 20s-8.92 20-20 20-20-8.92-20-20 8.92-20 20-20z" fill="#7babe3" stroke="#000" stroke-linejoin="round" stroke-width="2"/>
  <g id="text8" aria-label="0">
   <path id="path877" d="m339.99 81.383q-2.0638 0-3.1088 2.0373-1.0319 2.0241-1.0319 6.0986 0 4.0613 1.0319 6.0986 1.0451 2.0241 3.1088 2.0241 2.077 0 3.1088-2.0241 1.0451-2.0373 1.0451-6.0986 0-4.0746-1.0451-6.0986-1.0319-2.0373-3.1088-2.0373zm0-2.1167q3.3205 0 5.0668 2.6326 1.7595 2.6194 1.7595 7.62 0 4.9874-1.7595 7.62-1.7462 2.6194-5.0668 2.6194t-5.08-2.6194q-1.7462-2.6326-1.7462-7.62 0-5.0006 1.7462-7.62 1.7595-2.6326 5.08-2.6326z"/>
  </g>
  <path id="rect10" d="m250 140c11.08 0 20 8.92 20 20s-8.92 20-20 20-20-8.92-20-20 8.92-20 20-20z" fill="#7babe3" stroke="#000" stroke-linejoin="round" stroke-width="2"/>
  <g id="text14" aria-label="1">
   <path id="path881" d="m244.73 167.13h4.3656v-15.068l-4.7493 0.9525v-2.4342l4.7228-0.9525h2.6723v17.502h4.3656v2.249h-11.377z"/>
  </g>
  <path id="rect16" d="m420 140c11.08 0 20 8.92 20 20s-8.92 20-20 20-20-8.92-20-20 8.92-20 20-20z" fill="#7babe3" stroke="#000" stroke-linejoin="round" stroke-width="2"/>
  <g id="text20" aria-label="2">
   <path id="path885" d="m416.57 167.13h9.3266v2.249h-12.541v-2.249q1.5214-1.5743 4.1407-4.2201 2.6326-2.6591 3.3073-3.4264 1.2832-1.442 1.7859-2.4342 0.51594-1.0054 0.51594-1.9711 0-1.5743-1.1112-2.5665-1.098-0.99218-2.8707-0.99218-1.2568 0-2.6591 0.43656-1.3891 0.43656-2.9766 1.3229v-2.6987q1.614-0.64823 3.0162-0.97896t2.5665-0.33073q3.0692 0 4.8948 1.5346 1.8256 1.5346 1.8256 4.101 0 1.2171-0.46302 2.3151-0.44979 1.0848-1.6536 2.5665-0.33072 0.38364-2.1034 2.2225-1.7727 1.8256-5.0006 5.1197z"/>
  </g>
  <path id="rect22" d="m210 210c11.08 0 20 8.92 20 20s-8.92 20-20 20-20-8.92-20-20 8.92-20 20-20z" fill="#7babe3" stroke="#000" stroke-linejoin="round" stroke-width="2"/>
  <g id="text26" aria-label="3">
   <path id="path889" d="m212.37 228.73q1.9182 0.41011 2.9898 1.7066 1.0848 1.2965 1.0848 3.2015 0 2.9236-2.0108 4.5244-2.0108 1.6007-5.715 1.6007-1.2435 0-2.5664-0.25136-1.3097-0.23812-2.712-0.7276v-2.5797q1.1112 0.64823 2.4342 0.97896 1.3229 0.33073 2.7649 0.33073 2.5135 0 3.8232-0.99219 1.3229-0.99218 1.3229-2.884 0-1.7462-1.2303-2.7252-1.2171-0.99218-3.3999-0.99218h-2.3019v-2.196h2.4077q1.9711 0 3.0162-0.78052 1.0451-0.79375 1.0451-2.2754 0-1.5214-1.0848-2.3283-1.0716-0.8202-3.0824-0.8202-1.098 0-2.3548 0.23812-1.2568 0.23813-2.7649 0.74083v-2.3812q1.5214-0.42334 2.8443-0.635 1.3361-0.21167 2.5135-0.21167 3.0427 0 4.8154 1.3891 1.7727 1.3758 1.7727 3.7306 0 1.6404-0.93927 2.7781-0.93927 1.1245-2.6723 1.561z"/>
  </g>
  <path id="rect28" d="m290 210c11.08 0 20 8.92 20 20s-8.92 20-20 20-20-8.92-20-20 8.92-20 20-20z" fill="#7babe3" stroke="#000" stroke-linejoin="round" stroke-width="2"/>
  <g id="text32" aria-label="4">
   <path id="path893" d="m291.61 221.95-6.7469 10.544h6.7469zm-0.70115-2.3283h3.3602v12.872h2.8178v2.2225h-2.8178v4.6567h-2.6591v-4.6567h-8.9164v-2.5797z"/>
  </g>
  <path id="rect34" d="m380 210c11.08 0 20 8.92 20 20s-8.92 20-20 20-20-8.92-20-20 8.92-20 20-20z" fill="#7babe3" stroke="#000" stroke-linejoin="round" stroke-width="2"/>
  <g id="text38" aria-label="5">
   <path id="path897" d="m374.3 219.62h10.491v2.249h-8.0433v4.8419q0.58208-0.19843 1.1642-0.29104 0.58209-0.10583 1.1642-0.10583 3.3073 0 5.2387 1.8124 1.9315 1.8124 1.9315 4.908 0 3.1882-1.9844 4.9609-1.9844 1.7595-5.5959 1.7595-1.2435 0-2.54-0.21167-1.2832-0.21167-2.6591-0.635v-2.6855q1.1906 0.64823 2.4606 0.96573t2.6855 0.3175q2.2886 0 3.6248-1.2038 1.3361-1.2039 1.3361-3.2676 0-2.0638-1.3361-3.2676-1.3362-1.2039-3.6248-1.2039-1.0716 0-2.1431 0.23813-1.0583 0.23812-2.1696 0.74083z"/>
  </g>
  <path id="rect40" d="m460 210c11.08 0 20 8.92 20 20s-8.92 20-20 20-20-8.92-20-20 8.92-20 20-20z" fill="#7babe3" stroke="#000" stroke-linejoin="round" stroke-width="2"/>
  <g id="text44" aria-label="6">
   <path id="path901" d="m460.32 228.43q-1.7992 0-2.8575 1.2303-1.0451 1.2303-1.0451 3.3734 0 2.1299 1.0451 3.3734 1.0583 1.2303 2.8575 1.2303t2.8443-1.2303q1.0583-1.2435 1.0583-3.3734 0-2.1431-1.0583-3.3734-1.0451-1.2303-2.8443-1.2303zm5.3049-8.374v2.4342q-1.0054-0.47625-2.0373-0.7276-1.0186-0.25135-2.0241-0.25135-2.6458 0-4.0481 1.7859-1.3891 1.7859-1.5875 5.3975 0.78052-1.1509 1.9579-1.7595 1.1774-0.62177 2.5929-0.62177 2.9766 0 4.6964 1.8124 1.733 1.7992 1.733 4.908 0 3.0427-1.7992 4.8816-1.7992 1.8389-4.789 1.8389-3.4264 0-5.2387-2.6194-1.8124-2.6326-1.8124-7.62 0-4.6831 2.2225-7.4612 2.2225-2.7914 5.9664-2.7914 1.0054 0 2.0241 0.19844 1.0319 0.19844 2.1431 0.59531z"/>
  </g>
  <g id="g50" fill="none" stroke="#000" stroke-width="2">
   <path id="line46" d="m319.04 106.3-44.546 34.647" stroke-linejoin="round"/>
   <path id="polyline48" d="m277.55 132.24-4.824 10.086 10.963-2.192"/>
  </g>
  <g id="g56" fill="none" stroke="#000" stroke-width="2">
   <path id="line52" d="m238 181-13.787 24.127"/>
   <path id="polyline54" d="m223.73 195.9-0.621 11.163 9.303-6.202"/>
  </g>
  <g id="g62" fill="none" stroke="#000" stroke-width="2">
   <path id="line58" d="m262 181 13.787 24.127"/>
   <path id="polyline60" d="m267.59 200.86 9.303 6.202-0.621-11.163"/>
  </g>
  <g id="g68" fill="none" stroke="#000" stroke-width="2">
   <path id="line64" d="m408 181-13.787 24.127"/>
   <path id="polyline66" d="m393.73 195.9-0.621 11.163 9.303-6.202"/>
  </g>
  <g id="g74" fill="none" stroke="#000" stroke-width="2">
   <path id="line70" d="m432 181 13.787 24.127"/>
   <path id="polyline72" d="m437.59 200.86 9.303 6.202-0.621-11.163"/>
  </g>
  <g id="g80" fill="none" stroke="#000" stroke-width="2">
   <path id="line76" d="m360.98 108.35 34.681 30.347"/>
   <path id="polyline78" d="m386.52 137.35 10.819 2.822-4.234-10.348"/>
  </g>
  <g id="g86" fill="none" stroke="#000" stroke-width="2">
   <path id="line82" d="m332.5 111-33.5 93.799"/>
   <path id="polyline84" d="m296.9 195.8 1.345 11.099 8.072-7.735"/>
  </g>
  <g id="g92" fill="none" stroke="#000" stroke-width="2">
   <path id="line88" d="m374 209-26.774-93.71"/>
   <path id="polyline90" d="m354.17 121.39-7.555-8.242-2.061 10.989"/>
  </g>
  <g id="g98" fill="none" stroke="#f00" stroke-width="2">
   <path id="line94" d="m316 92-52.422 39.317"/>
   <path id="polyline96" d="m266.79 122.66-5 10 11-2"/>
  </g>
  <g id="g104" fill="none" stroke="#f00" stroke-width="2">
   <path id="line100" d="m280 160h105.53"/>
   <path id="polyline102" d="m377.76 165 10-5-10-5"/>
  </g>
  <g id="g110" fill="none" stroke="#f00" stroke-width="2">
   <path id="line106" d="m390 170-145.68 38.848"/>
   <path id="polyline108" d="m250.54 202.02-8.374 7.408 10.95 2.254"/>
  </g>
  <g id="g116" fill="none" stroke="#f00" stroke-width="2">
   <path id="line112" d="m240 230h15.528"/>
   <path id="polyline114" d="m247.76 235 10-5-10-5"/>
  </g>
  <g id="g122" fill="none" stroke="#f00" stroke-width="2">
   <path id="line118" d="m320 230h25.528"/>
   <path id="polyline120" d="m337.76 235 10-5-10-5"/>
  </g>
  <g id="g128" fill="none" stroke="#f00" stroke-width="2">
   <path id="line124" d="m410 230h15.528"/>
   <path id="polyline126" d="m417.76 235 10-5-10-5"/>
  </g>
 </g>
</svg>
