<?xml version="1.0" encoding="UTF-8"?>
<svg id="svg109" width="7.736cm" height="8.9448cm" version="1.1" viewBox="380 99 136.35 162" xmlns="http://www.w3.org/2000/svg" xmlns:cc="http://creativecommons.org/ns#" xmlns:dc="http://purl.org/dc/elements/1.1/" xmlns:rdf="http://www.w3.org/1999/02/22-rdf-syntax-ns#">
 <metadata id="metadata115">
  <rdf:RDF>
   <cc:Work rdf:about="">
    <dc:format>image/svg+xml</dc:format>
    <dc:type rdf:resource="http://purl.org/dc/dcmitype/StillImage"/>
   </cc:Work>
  </rdf:RDF>
 </metadata>
 <g id="Háttér" transform="translate(-2.7732)">
  <g id="g8">
   <path id="rect2" d="m400 100h40v40h-40z" fill="#7babe3" stroke="#000" stroke-width="2"/>
   <g id="text6" aria-label="A">
    <path id="path867" d="m420 115.57-1.8124 4.9146h3.6314zm-0.75406-1.3163h1.5147l3.7637 9.8756h-1.3891l-0.89959-2.5334h-4.4516l-0.89959 2.5334h-1.4089z" style=""/>
   </g>
  </g>
  <g id="g16">
   <path id="rect10" d="m400 140h40v40h-40z" fill="#7babe3" stroke="#000" stroke-width="2"/>
   <g id="text14" aria-label="B">
    <path id="path871" d="m418.02 159.42v3.6182h2.1431q1.0782 0 1.5941-0.44318 0.52256-0.44979 0.52256-1.3692 0-0.92604-0.52256-1.3626-0.51594-0.44317-1.5941-0.44317zm0-4.0614v2.9766h1.9778q0.97896 0 1.4552-0.3638 0.48287-0.37042 0.48287-1.1245 0-0.74745-0.48287-1.1179-0.47625-0.37042-1.4552-0.37042zm-1.3361-1.098h3.4131q1.528 0 2.3548 0.635 0.82682 0.635 0.82682 1.8058 0 0.9062-0.42333 1.442-0.42334 0.53578-1.2436 0.66807 0.98558 0.21167 1.528 0.88636 0.54902 0.66807 0.54902 1.6735 0 1.3229-0.89959 2.0439-0.89958 0.721-2.5598 0.721h-3.5454z" style=""/>
   </g>
  </g>
  <g id="g24">
   <path id="rect18" d="m400 180h40v40h-40z" fill="#7babe3" stroke="#000" stroke-width="2"/>
   <g id="text22" aria-label="C">
    <path id="path875" d="m423.99 195.02v1.4089q-0.67469-0.62839-1.442-0.93928-0.76068-0.31088-1.6206-0.31088-1.6933 0-2.5929 1.0385-0.89958 1.0319-0.89958 2.9898 0 1.9513 0.89958 2.9898 0.89959 1.0319 2.5929 1.0319 0.8599 0 1.6206-0.31089 0.76729-0.31089 1.442-0.93927v1.3957q-0.70114 0.47625-1.4883 0.71437-0.78052 0.23813-1.6536 0.23813-2.2424 0-3.5322-1.3692-1.2898-1.3758-1.2898-3.7505 0-2.3813 1.2898-3.7505 1.2898-1.3758 3.5322-1.3758 0.88636 0 1.6669 0.23813 0.78714 0.23151 1.475 0.70115z" style=""/>
   </g>
  </g>
  <g id="g32">
   <path id="rect26" d="m400 220h40v40h-40z" fill="#7babe3" stroke="#000" stroke-width="2"/>
   <g id="text30" aria-label="D">
    <path id="path879" d="m417.45 235.36v7.6796h1.614q2.0439 0 2.9898-0.92604 0.9525-0.92605 0.9525-2.9236 0-1.9844-0.9525-2.9038-0.94589-0.92605-2.9898-0.92605zm-1.3362-1.098h2.7451q2.8707 0 4.2135 1.1972 1.3428 1.1906 1.3428 3.7306 0 2.5532-1.3494 3.7505-1.3494 1.1972-4.2069 1.1972h-2.7451z" style=""/>
   </g>
  </g>
  <g id="text36" aria-label="0.">
   <path id="path882" d="m384.31 115.7q-1.0319 0-1.5544 1.0186-0.51594 1.012-0.51594 3.0493 0 2.0307 0.51594 3.0493 0.52256 1.012 1.5544 1.012 1.0385 0 1.5544-1.012 0.52255-1.0186 0.52255-3.0493 0-2.0373-0.52255-3.0493-0.51594-1.0186-1.5544-1.0186zm0-1.0583q1.6603 0 2.5334 1.3163 0.87974 1.3097 0.87974 3.81 0 2.4937-0.87974 3.81-0.87313 1.3097-2.5334 1.3097-1.6603 0-2.54-1.3097-0.87313-1.3163-0.87313-3.81 0-2.5003 0.87313-3.81 0.87974-1.3163 2.54-1.3163z" style=""/>
   <path id="path884" d="m390.07 123.02h1.3957v1.6801h-1.3957z" style=""/>
  </g>
  <g id="text40" aria-label="1.">
   <path id="path887" d="m381.68 163.58h2.1828v-7.534l-2.3746 0.47625v-1.2171l2.3614-0.47625h1.3362v8.7511h2.1828v1.1245h-5.6886z" style=""/>
   <path id="path889" d="m390.07 163.02h1.3957v1.6801h-1.3957z" style=""/>
  </g>
  <g id="text44" aria-label="2.">
   <path id="path892" d="m382.6 203.58h4.6633v1.1245h-6.2706v-1.1245q0.76068-0.78714 2.0704-2.1101 1.3163-1.3295 1.6536-1.7132 0.64162-0.72099 0.89297-1.2171 0.25797-0.50271 0.25797-0.98557 0-0.78714-0.55563-1.2832-0.54901-0.49609-1.4354-0.49609-0.62839 0-1.3295 0.21828-0.69453 0.21828-1.4883 0.66146v-1.3494q0.80698-0.32411 1.5081-0.48948 0.70115-0.16536 1.2832-0.16536 1.5346 0 2.4474 0.76729 0.91281 0.76729 0.91281 2.0505 0 0.60854-0.23151 1.1576-0.22489 0.5424-0.82682 1.2832-0.16537 0.19183-1.0517 1.1113-0.88636 0.91281-2.5003 2.5598z" style=""/>
   <path id="path894" d="m390.07 203.02h1.3957v1.6801h-1.3957z" style=""/>
  </g>
  <g id="text48" aria-label="3.">
   <path id="path897" d="m385.5 239.38q0.95912 0.20506 1.4949 0.85329 0.5424 0.64823 0.5424 1.6007 0 1.4618-1.0054 2.2622-1.0054 0.80037-2.8575 0.80037-0.62177 0-1.2832-0.12568-0.65484-0.11906-1.356-0.3638v-1.2898q0.55562 0.32412 1.2171 0.48948 0.66146 0.16537 1.3825 0.16537 1.2568 0 1.9116-0.4961 0.66146-0.49609 0.66146-1.442 0-0.87313-0.61515-1.3626-0.60855-0.49609-1.7-0.49609h-1.1509v-1.098h1.2039q0.98558 0 1.5081-0.39026 0.52255-0.39687 0.52255-1.1377 0-0.76068-0.54239-1.1642-0.53579-0.4101-1.5412-0.4101-0.54901 0-1.1774 0.11906-0.62839 0.11906-1.3825 0.37042v-1.1906q0.76068-0.21167 1.4221-0.3175 0.66808-0.10583 1.2568-0.10583 1.5214 0 2.4077 0.69453 0.88636 0.68792 0.88636 1.8653 0 0.82021-0.46964 1.3891-0.46964 0.56224-1.3362 0.78052z" style=""/>
   <path id="path899" d="m390.07 243.02h1.3957v1.6801h-1.3957z" style=""/>
  </g>
  <g id="g56">
   <path id="rect50" d="m480 110h20v20h-20z" fill="#7babe3" stroke="#000" stroke-width="2"/>
   <g id="text54" aria-label="1">
    <path id="path903" d="m487.37 123.01h2.1828v-7.534l-2.3746 0.47625v-1.2171l2.3614-0.47625h1.3362v8.7511h2.1828v1.1245h-5.6886z" style=""/>
   </g>
  </g>
  <g id="g64">
   <path id="rect58" d="m500 110h20v20h-20z" fill="#7babe3" stroke="#000" stroke-width="2"/>
   <g id="text62" aria-label="2">
    <path id="path907" d="m508.29 123.01h4.6633v1.1245h-6.2706v-1.1245q0.76068-0.78714 2.0704-2.1101 1.3163-1.3295 1.6536-1.7132 0.64162-0.72099 0.89297-1.2171 0.25797-0.50271 0.25797-0.98558 0-0.78714-0.55563-1.2832-0.54901-0.4961-1.4354-0.4961-0.62839 0-1.3295 0.21829-0.69453 0.21828-1.4883 0.66146v-1.3494q0.80698-0.32412 1.5081-0.48948 0.70114-0.16537 1.2832-0.16537 1.5346 0 2.4474 0.7673 0.91281 0.76729 0.91281 2.0505 0 0.60854-0.23151 1.1576-0.22489 0.54239-0.82682 1.2832-0.16537 0.19182-1.0517 1.1112-0.88636 0.91282-2.5003 2.5598z" style=""/>
   </g>
  </g>
  <g id="g72">
   <path id="rect66" d="m480 150h20v20h-20z" fill="#7babe3" stroke="#000" stroke-width="2"/>
   <g id="text70" aria-label="2">
    <path id="path911" d="m488.29 163.01h4.6633v1.1245h-6.2706v-1.1245q0.76068-0.78713 2.0704-2.11 1.3163-1.3295 1.6536-1.7132 0.64162-0.721 0.89297-1.2171 0.25797-0.50271 0.25797-0.98558 0-0.78713-0.55563-1.2832-0.54901-0.49609-1.4354-0.49609-0.62839 0-1.3295 0.21828-0.69453 0.21828-1.4883 0.66146v-1.3494q0.80698-0.32412 1.5081-0.48948 0.70114-0.16537 1.2832-0.16537 1.5346 0 2.4474 0.7673 0.91281 0.76729 0.91281 2.0505 0 0.60855-0.23151 1.1576-0.22489 0.5424-0.82682 1.2832-0.16537 0.19182-1.0517 1.1112-0.88636 0.91282-2.5003 2.5598z" style=""/>
   </g>
  </g>
  <g id="g80">
   <path id="rect74" d="m500 150h20v20h-20z" fill="#7babe3" stroke="#000" stroke-width="2"/>
   <g id="text78" aria-label="3">
    <path id="path915" d="m511.18 158.81q0.95912 0.20506 1.4949 0.85329 0.5424 0.64823 0.5424 1.6007 0 1.4618-1.0054 2.2622-1.0054 0.80037-2.8575 0.80037-0.62177 0-1.2832-0.12568-0.65484-0.11906-1.356-0.3638v-1.2898q0.55563 0.32412 1.2171 0.48948 0.66146 0.16537 1.3825 0.16537 1.2568 0 1.9116-0.4961 0.66146-0.49609 0.66146-1.442 0-0.87313-0.61516-1.3626-0.60855-0.49609-1.7-0.49609h-1.1509v-1.098h1.2038q0.98558 0 1.5081-0.39026 0.52255-0.39687 0.52255-1.1377 0-0.76068-0.54239-1.1642-0.53579-0.4101-1.5412-0.4101-0.54902 0-1.1774 0.11906-0.62839 0.11906-1.3824 0.37042v-1.1906q0.76067-0.21167 1.4221-0.3175 0.66808-0.10584 1.2568-0.10584 1.5214 0 2.4077 0.69454 0.88636 0.68792 0.88636 1.8653 0 0.82021-0.46964 1.3891-0.46963 0.56224-1.3362 0.78052z" style=""/>
   </g>
  </g>
  <g id="g88">
   <path id="rect82" d="m480 230h20v20h-20z" fill="#7babe3" stroke="#000" stroke-width="2"/>
   <g id="text86" aria-label="2">
    <path id="path919" d="m488.29 243.01h4.6633v1.1245h-6.2706v-1.1245q0.76068-0.78713 2.0704-2.11 1.3163-1.3295 1.6536-1.7132 0.64162-0.721 0.89297-1.2171 0.25797-0.50271 0.25797-0.98558 0-0.78713-0.55563-1.2832-0.54901-0.49609-1.4354-0.49609-0.62839 0-1.3295 0.21828-0.69453 0.21828-1.4883 0.66146v-1.3494q0.80698-0.32412 1.5081-0.48948 0.70114-0.16537 1.2832-0.16537 1.5346 0 2.4474 0.7673 0.91281 0.76729 0.91281 2.0505 0 0.60855-0.23151 1.1576-0.22489 0.5424-0.82682 1.2832-0.16537 0.19182-1.0517 1.1112-0.88636 0.91282-2.5003 2.5598z" style=""/>
   </g>
  </g>
  <g id="g94" fill="none" stroke="#000" stroke-width="2">
   <path id="line90" d="m440 120h35.528"/>
   <path id="polyline92" d="m467.76 125 10-5-10-5"/>
  </g>
  <g id="g100" fill="none" stroke="#000" stroke-width="2">
   <path id="line96" d="m440 160h35.528"/>
   <path id="polyline98" d="m467.76 165 10-5-10-5"/>
  </g>
  <g id="g106" fill="none" stroke="#000" stroke-width="2">
   <path id="line102" d="m440.99 240h34.537"/>
   <path id="polyline104" d="m467.76 245 10-5-10-5"/>
  </g>
 </g>
</svg>
