<?xml version="1.0" encoding="UTF-8"?>
<svg id="svg150" width="24.934cm" height="9.0936cm" version="1.1" viewBox="55 77 496.68 167.32" xmlns="http://www.w3.org/2000/svg" xmlns:cc="http://creativecommons.org/ns#" xmlns:dc="http://purl.org/dc/elements/1.1/" xmlns:rdf="http://www.w3.org/1999/02/22-rdf-syntax-ns#">
 <metadata id="metadata156">
  <rdf:RDF>
   <cc:Work rdf:about="">
    <dc:format>image/svg+xml</dc:format>
    <dc:type rdf:resource="http://purl.org/dc/dcmitype/StillImage"/>
   </cc:Work>
  </rdf:RDF>
 </metadata>
 <g id="g22" transform="translate(-.5612 -9.7658)">
  <g id="g10">
   <path id="polygon2" d="m220 140h-80v-40h80z" fill="#0f0"/>
   <path id="polygon4" d="m220 140h-80v-40h80z" fill="none" stroke="#000" stroke-width="2"/>
   <g id="text8" aria-label="szin">
    <path id="path83" d="m173.13 117.21v1.0875q-0.4875-0.25-1.0125-0.375t-1.0875-0.125q-0.85625 0-1.2875 0.2625-0.425 0.2625-0.425 0.7875 0 0.4 0.30625 0.63125 0.30625 0.225 1.2312 0.43125l0.39375 0.0875q1.225 0.2625 1.7375 0.74375 0.51875 0.475 0.51875 1.3312 0 0.975-0.775 1.5438-0.76875 0.56875-2.1188 0.56875-0.5625 0-1.175-0.1125-0.60625-0.10625-1.2812-0.325v-1.1875q0.6375 0.33125 1.2562 0.5 0.61875 0.1625 1.225 0.1625 0.8125 0 1.25-0.275 0.4375-0.28125 0.4375-0.7875 0-0.46875-0.31875-0.71875-0.3125-0.25-1.3812-0.48125l-0.4-0.0937q-1.0688-0.225-1.5438-0.6875-0.475-0.46875-0.475-1.2812 0-0.9875 0.7-1.525t1.9875-0.5375q0.6375 0 1.2 0.0937t1.0375 0.28125z" style=""/>
    <path id="path85" d="m174.84 117h5.4625v1.05l-4.325 5.0312h4.325v0.91875h-5.6188v-1.05l4.325-5.0312h-4.1688z" style=""/>
    <path id="path87" d="m182.07 117h1.15v7h-1.15zm0-2.725h1.15v1.4562h-1.15z" style=""/>
    <path id="path89" d="m191.44 119.78v4.225h-1.15v-4.1875q0-0.99375-0.3875-1.4875t-1.1625-0.49375q-0.93125 0-1.4688 0.59375t-0.5375 1.6188v3.9562h-1.1562v-7h1.1562v1.0875q0.4125-0.63125 0.96875-0.94375 0.5625-0.3125 1.2938-0.3125 1.2062 0 1.825 0.75 0.61875 0.74375 0.61875 2.1938z" style=""/>
   </g>
  </g>
  <g id="g20">
   <path id="polygon12" d="m220 180h-80v-40h80z" fill="#0f0"/>
   <path id="polygon14" d="m220 180h-80v-40h80z" fill="none" stroke="#000" stroke-width="2"/>
   <g id="text18" aria-label="pont">
    <path id="path94" d="m167.77 162.95v3.7125h-1.1562v-9.6625h1.1562v1.0625q0.3625-0.625 0.9125-0.925 0.55625-0.30625 1.325-0.30625 1.275 0 2.0688 1.0125 0.8 1.0125 0.8 2.6625t-0.8 2.6625q-0.79375 1.0125-2.0688 1.0125-0.76875 0-1.325-0.3-0.55-0.30625-0.9125-0.93125zm3.9125-2.4438q0-1.2688-0.525-1.9875-0.51875-0.725-1.4312-0.725t-1.4375 0.725q-0.51875 0.71875-0.51875 1.9875t0.51875 1.9938q0.525 0.71875 1.4375 0.71875t1.4312-0.71875q0.525-0.725 0.525-1.9938z" style=""/>
    <path id="path96" d="m177.49 157.81q-0.925 0-1.4625 0.725-0.5375 0.71875-0.5375 1.975t0.53125 1.9812q0.5375 0.71875 1.4688 0.71875 0.91875 0 1.4562-0.725t0.5375-1.975q0-1.2438-0.5375-1.9688-0.5375-0.73125-1.4562-0.73125zm0-0.975q1.5 0 2.3562 0.975t0.85625 2.7q0 1.7188-0.85625 2.7-0.85625 0.975-2.3562 0.975-1.5062 0-2.3625-0.975-0.85-0.98125-0.85-2.7 0-1.725 0.85-2.7 0.85625-0.975 2.3625-0.975z" style=""/>
    <path id="path98" d="m188.42 159.78v4.225h-1.15v-4.1875q0-0.99375-0.3875-1.4875t-1.1625-0.49375q-0.93125 0-1.4688 0.59375t-0.5375 1.6188v3.9562h-1.1562v-7h1.1562v1.0875q0.4125-0.63125 0.96875-0.94375 0.5625-0.3125 1.2938-0.3125 1.2062 0 1.825 0.75 0.61875 0.74375 0.61875 2.1938z" style=""/>
    <path id="path100" d="m191.87 155.01v1.9875h2.3688v0.89375h-2.3688v3.8q0 0.85625 0.23125 1.1 0.2375 0.24375 0.95625 0.24375h1.1812v0.9625h-1.1812q-1.3312 0-1.8375-0.49375-0.50625-0.5-0.50625-1.8125v-3.8h-0.84375v-0.89375h0.84375v-1.9875z" style=""/>
   </g>
  </g>
 </g>
 <path id="line24" d="m219.44 90.234h39.024" fill="none" stroke="#000" stroke-dasharray="4" stroke-width="2"/>
 <path id="line26" d="m219.44 170.23h39.024" fill="none" stroke="#000" stroke-dasharray="4" stroke-width="2"/>
 <path id="line28" d="m339.44 90.234h39.024" fill="none" stroke="#000" stroke-dasharray="4" stroke-width="2"/>
 <path id="line30" d="m339.44 170.23h39.024" fill="none" stroke="#000" stroke-dasharray="4" stroke-width="2"/>
 <g id="text34" aria-label="Alakzat">
  <path id="path107" d="m162.22 72.147-1.7125 4.6438h3.4312zm-0.7125-1.2438h1.4312l3.5562 9.3312h-1.3125l-0.85-2.3938h-4.2062l-0.85 2.3938h-1.3312z" style=""/>
  <path id="path109" d="m167.8 70.509h1.15v9.725h-1.15z" style=""/>
  <path id="path111" d="m174.54 76.715q-1.3938 0-1.9312 0.31875t-0.5375 1.0875q0 0.6125 0.4 0.975 0.40625 0.35625 1.1 0.35625 0.95625 0 1.5312-0.675 0.58125-0.68125 0.58125-1.8062v-0.25625zm2.2938-0.475v3.9938h-1.15v-1.0625q-0.39375 0.6375-0.98125 0.94375-0.5875 0.3-1.4375 0.3-1.075 0-1.7125-0.6-0.63125-0.60625-0.63125-1.6188 0-1.1812 0.7875-1.7812 0.79375-0.6 2.3625-0.6h1.6125v-0.1125q0-0.79375-0.525-1.225-0.51875-0.4375-1.4625-0.4375-0.6 0-1.1688 0.14375t-1.0938 0.43125v-1.0625q0.63125-0.24375 1.225-0.3625 0.59375-0.125 1.1562-0.125 1.5188 0 2.2688 0.7875t0.75 2.3875z" style=""/>
  <path id="path113" d="m179.16 70.509h1.1562v5.7438l3.4312-3.0188h1.4688l-3.7125 3.275 3.8688 3.725h-1.5l-3.5562-3.4188v3.4188h-1.1562z" style=""/>
  <path id="path115" d="m186.13 73.234h5.4625v1.05l-4.325 5.0312h4.325v0.91875h-5.6188v-1.05l4.325-5.0312h-4.1688z" style=""/>
  <path id="path117" d="m196.54 76.715q-1.3938 0-1.9312 0.31875t-0.5375 1.0875q0 0.6125 0.4 0.975 0.40625 0.35625 1.1 0.35625 0.95625 0 1.5312-0.675 0.58125-0.68125 0.58125-1.8062v-0.25625zm2.2938-0.475v3.9938h-1.15v-1.0625q-0.39375 0.6375-0.98125 0.94375-0.5875 0.3-1.4375 0.3-1.075 0-1.7125-0.6-0.63125-0.60625-0.63125-1.6188 0-1.1812 0.7875-1.7812 0.79375-0.6 2.3625-0.6h1.6125v-0.1125q0-0.79375-0.525-1.225-0.51875-0.4375-1.4625-0.4375-0.6 0-1.1688 0.14375t-1.0938 0.43125v-1.0625q0.63125-0.24375 1.225-0.3625 0.59375-0.125 1.1562-0.125 1.5188 0 2.2688 0.7875t0.75 2.3875z" style=""/>
  <path id="path119" d="m202.34 71.247v1.9875h2.3688v0.89375h-2.3688v3.8q0 0.85625 0.23125 1.1 0.2375 0.24375 0.95625 0.24375h1.1812v0.9625h-1.1812q-1.3312 0-1.8375-0.49375-0.50625-0.5-0.50625-1.8125v-3.8h-0.84375v-0.89375h0.84375v-1.9875z" style=""/>
 </g>
 <g id="text38" aria-label="Kor">
  <path id="path122" d="m289.01 71.323h1.2625v3.9438l4.1875-3.9438h1.625l-4.6312 4.35 4.9625 4.9812h-1.6625l-4.4812-4.4938v4.4938h-1.2625z" style=""/>
  <path id="path124" d="m299.45 74.461q-0.925 0-1.4625 0.725-0.5375 0.71875-0.5375 1.975t0.53125 1.9812q0.5375 0.71875 1.4688 0.71875 0.91875 0 1.4562-0.725t0.5375-1.975q0-1.2438-0.5375-1.9688-0.5375-0.73125-1.4562-0.73125zm0-0.975q1.5 0 2.3562 0.975t0.85625 2.7q0 1.7188-0.85625 2.7-0.85625 0.975-2.3562 0.975-1.5062 0-2.3625-0.975-0.85-0.98125-0.85-2.7 0-1.725 0.85-2.7 0.85625-0.975 2.3625-0.975z" style=""/>
  <path id="path126" d="m308.62 74.73q-0.19375-0.1125-0.425-0.1625-0.225-0.05625-0.5-0.05625-0.975 0-1.5 0.6375-0.51875 0.63125-0.51875 1.8188v3.6875h-1.1562v-7h1.1562v1.0875q0.3625-0.6375 0.94375-0.94375 0.58125-0.3125 1.4125-0.3125 0.11875 0 0.2625 0.01875 0.14375 0.0125 0.31875 0.04375z" style=""/>
 </g>
 <g id="text42" aria-label="Teglalap">
  <path id="path129" d="m392.35 70.483h7.8938v1.0625h-3.3125v8.2688h-1.2688v-8.2688h-3.3125z" style=""/>
  <path id="path131" d="m405.23 76.026v0.5625h-5.2875q0.075 1.1875 0.7125 1.8125 0.64375 0.61875 1.7875 0.61875 0.6625 0 1.2812-0.1625 0.625-0.1625 1.2375-0.4875v1.0875q-0.61875 0.2625-1.2688 0.4t-1.3188 0.1375q-1.675 0-2.6562-0.975-0.975-0.975-0.975-2.6375 0-1.7188 0.925-2.725 0.93125-1.0125 2.5062-1.0125 1.4125 0 2.2312 0.9125 0.825 0.90625 0.825 2.4688zm-1.15-0.3375q-0.0125-0.94375-0.53125-1.5062-0.5125-0.5625-1.3625-0.5625-0.9625 0-1.5438 0.54375-0.575 0.54375-0.6625 1.5312z" style=""/>
  <path id="path133" d="m411.72 76.233q0-1.25-0.51875-1.9375-0.5125-0.6875-1.4438-0.6875-0.925 0-1.4438 0.6875-0.5125 0.6875-0.5125 1.9375 0 1.2438 0.5125 1.9312 0.51875 0.6875 1.4438 0.6875 0.93125 0 1.4438-0.6875 0.51875-0.6875 0.51875-1.9312zm1.15 2.7125q0 1.7875-0.79375 2.6562-0.79375 0.875-2.4312 0.875-0.60625 0-1.1438-0.09375-0.5375-0.0875-1.0438-0.275v-1.1188q0.50625 0.275 1 0.40625t1.0062 0.13125q1.1312 0 1.6938-0.59375 0.5625-0.5875 0.5625-1.7812v-0.56875q-0.35625 0.61875-0.9125 0.925t-1.3312 0.30625q-1.2875 0-2.075-0.98125t-0.7875-2.6q0-1.625 0.7875-2.6062t2.075-0.98125q0.775 0 1.3312 0.30625t0.9125 0.925v-1.0625h1.15z" style=""/>
  <path id="path135" d="m415.24 70.089h1.15v9.725h-1.15z" style=""/>
  <path id="path137" d="m421.97 76.295q-1.3938 0-1.9312 0.31875t-0.5375 1.0875q0 0.6125 0.4 0.975 0.40625 0.35625 1.1 0.35625 0.95625 0 1.5312-0.675 0.58125-0.68125 0.58125-1.8062v-0.25625zm2.2938-0.475v3.9938h-1.15v-1.0625q-0.39375 0.6375-0.98125 0.94375-0.5875 0.3-1.4375 0.3-1.075 0-1.7125-0.6-0.63125-0.60625-0.63125-1.6188 0-1.1812 0.7875-1.7812 0.79375-0.6 2.3625-0.6h1.6125v-0.1125q0-0.79375-0.525-1.225-0.51875-0.4375-1.4625-0.4375-0.6 0-1.1688 0.14375t-1.0938 0.43125v-1.0625q0.63125-0.24375 1.225-0.3625 0.59375-0.125 1.1562-0.125 1.5188 0 2.2688 0.7875t0.75 2.3875z" style=""/>
  <path id="path139" d="m426.64 70.089h1.15v9.725h-1.15z" style=""/>
  <path id="path141" d="m433.37 76.295q-1.3938 0-1.9312 0.31875t-0.5375 1.0875q0 0.6125 0.4 0.975 0.40625 0.35625 1.1 0.35625 0.95625 0 1.5312-0.675 0.58125-0.68125 0.58125-1.8062v-0.25625zm2.2938-0.475v3.9938h-1.15v-1.0625q-0.39375 0.6375-0.98125 0.94375-0.5875 0.3-1.4375 0.3-1.075 0-1.7125-0.6-0.63125-0.60625-0.63125-1.6188 0-1.1812 0.7875-1.7812 0.79375-0.6 2.3625-0.6h1.6125v-0.1125q0-0.79375-0.525-1.225-0.51875-0.4375-1.4625-0.4375-0.6 0-1.1688 0.14375t-1.0938 0.43125v-1.0625q0.63125-0.24375 1.225-0.3625 0.59375-0.125 1.1562-0.125 1.5188 0 2.2688 0.7875t0.75 2.3875z" style=""/>
  <path id="path143" d="m439.15 78.764v3.7125h-1.1562v-9.6625h1.1562v1.0625q0.3625-0.625 0.9125-0.925 0.55625-0.30625 1.325-0.30625 1.275 0 2.0688 1.0125 0.8 1.0125 0.8 2.6625t-0.8 2.6625q-0.79375 1.0125-2.0688 1.0125-0.76875 0-1.325-0.3-0.55-0.30625-0.9125-0.93125zm3.9125-2.4438q0-1.2688-0.525-1.9875-0.51875-0.725-1.4312-0.725t-1.4375 0.725q-0.51875 0.71875-0.51875 1.9875t0.51875 1.9938q0.525 0.71875 1.4375 0.71875t1.4312-0.71875q0.525-0.725 0.525-1.9938z" style=""/>
 </g>
 <g id="text46" aria-label="Alakzat">
  <path id="path146" d="m509.19 126.77-1.7125 4.6438h3.4312zm-0.7125-1.2438h1.4312l3.5562 9.3312h-1.3125l-0.85-2.3938h-4.2062l-0.85 2.3938h-1.3312z" style=""/>
  <path id="path148" d="m514.77 125.13h1.15v9.725h-1.15z" style=""/>
  <path id="path150" d="m521.5 131.34q-1.3938 0-1.9312 0.31875t-0.5375 1.0875q0 0.6125 0.4 0.975 0.40625 0.35625 1.1 0.35625 0.95625 0 1.5312-0.675 0.58125-0.68125 0.58125-1.8062v-0.25625zm2.2938-0.475v3.9938h-1.15v-1.0625q-0.39375 0.6375-0.98125 0.94375-0.5875 0.3-1.4375 0.3-1.075 0-1.7125-0.6-0.63125-0.60625-0.63125-1.6188 0-1.1812 0.7875-1.7812 0.79375-0.6 2.3625-0.6h1.6125v-0.1125q0-0.79375-0.525-1.225-0.51875-0.4375-1.4625-0.4375-0.6 0-1.1688 0.14375t-1.0938 0.43125v-1.0625q0.63125-0.24375 1.225-0.3625 0.59375-0.125 1.1562-0.125 1.5188 0 2.2688 0.7875t0.75 2.3875z" style=""/>
  <path id="path152" d="m526.13 125.13h1.1562v5.7438l3.4312-3.0188h1.4688l-3.7125 3.275 3.8688 3.725h-1.5l-3.5562-3.4188v3.4188h-1.1562z" style=""/>
  <path id="path154" d="m533.1 127.86h5.4625v1.05l-4.325 5.0312h4.325v0.91875h-5.6188v-1.05l4.325-5.0312h-4.1688z" style=""/>
  <path id="path156" d="m543.5 131.34q-1.3938 0-1.9312 0.31875t-0.5375 1.0875q0 0.6125 0.4 0.975 0.40625 0.35625 1.1 0.35625 0.95625 0 1.5312-0.675 0.58125-0.68125 0.58125-1.8062v-0.25625zm2.2938-0.475v3.9938h-1.15v-1.0625q-0.39375 0.6375-0.98125 0.94375-0.5875 0.3-1.4375 0.3-1.075 0-1.7125-0.6-0.63125-0.60625-0.63125-1.6188 0-1.1812 0.7875-1.7812 0.79375-0.6 2.3625-0.6h1.6125v-0.1125q0-0.79375-0.525-1.225-0.51875-0.4375-1.4625-0.4375-0.6 0-1.1688 0.14375t-1.0938 0.43125v-1.0625q0.63125-0.24375 1.225-0.3625 0.59375-0.125 1.1562-0.125 1.5188 0 2.2688 0.7875t0.75 2.3875z" style=""/>
  <path id="path158" d="m549.31 125.87v1.9875h2.3688v0.89375h-2.3688v3.8q0 0.85625 0.23125 1.1 0.2375 0.24375 0.95625 0.24375h1.1812v0.9625h-1.1812q-1.3312 0-1.8375-0.49375-0.50625-0.5-0.50625-1.8125v-3.8h-0.84375v-0.89375h0.84375v-1.9875z" style=""/>
 </g>
 <g id="g52" transform="translate(-.5612 -9.7658)" fill="none" stroke="#000" stroke-width="2">
  <path id="path48" d="m470 100c30 0 0 40 30 40"/>
  <path id="path50" d="m470 180c30 0 0-40 30-40"/>
 </g>
 <g id="g62" transform="translate(-.5612 -9.7658)">
  <path id="polygon54" d="m100 140h-40v-40h40z" fill="#ff0"/>
  <path id="polygon56" d="m100 140h-40v-40h40z" fill="none" stroke="#000" stroke-width="2"/>
  <g id="text60" aria-label="p">
   <path id="path163" d="m78.256 122.95v3.7125h-1.1562v-9.6625h1.1562v1.0625q0.3625-0.625 0.9125-0.925 0.55625-0.30625 1.325-0.30625 1.275 0 2.0688 1.0125 0.8 1.0125 0.8 2.6625t-0.8 2.6625q-0.79375 1.0125-2.0688 1.0125-0.76875 0-1.325-0.3-0.55-0.30625-0.9125-0.93125zm3.9125-2.4438q0-1.2688-0.525-1.9875-0.51875-0.725-1.4312-0.725t-1.4375 0.725q-0.51875 0.71875-0.51875 1.9875t0.51875 1.9938q0.525 0.71875 1.4375 0.71875t1.4312-0.71875q0.525-0.725 0.525-1.9938z" style=""/>
  </g>
 </g>
 <g id="g94" transform="translate(-.5612 -9.7658)">
  <g id="g72">
   <path id="polygon64" d="m340 140h-80v-40h80z" fill="#0f0"/>
   <path id="polygon66" d="m340 140h-80v-40h80z" fill="none" stroke="#000" stroke-width="2"/>
   <g id="text70" aria-label="szin">
    <path id="path168" d="m293.13 117.21v1.0875q-0.4875-0.25-1.0125-0.375t-1.0875-0.125q-0.85625 0-1.2875 0.2625-0.425 0.2625-0.425 0.7875 0 0.4 0.30625 0.63125 0.30625 0.225 1.2312 0.43125l0.39375 0.0875q1.225 0.2625 1.7375 0.74375 0.51875 0.475 0.51875 1.3312 0 0.975-0.775 1.5438-0.76875 0.56875-2.1188 0.56875-0.5625 0-1.175-0.1125-0.60625-0.10625-1.2812-0.325v-1.1875q0.6375 0.33125 1.2562 0.5 0.61875 0.1625 1.225 0.1625 0.8125 0 1.25-0.275 0.4375-0.28125 0.4375-0.7875 0-0.46875-0.31875-0.71875-0.3125-0.25-1.3812-0.48125l-0.4-0.0937q-1.0688-0.225-1.5438-0.6875-0.475-0.46875-0.475-1.2812 0-0.9875 0.7-1.525t1.9875-0.5375q0.6375 0 1.2 0.0937t1.0375 0.28125z" style=""/>
    <path id="path170" d="m294.84 117h5.4625v1.05l-4.325 5.0312h4.325v0.91875h-5.6188v-1.05l4.325-5.0312h-4.1688z" style=""/>
    <path id="path172" d="m302.07 117h1.15v7h-1.15zm0-2.725h1.15v1.4562h-1.15z" style=""/>
    <path id="path174" d="m311.44 119.78v4.225h-1.15v-4.1875q0-0.99375-0.3875-1.4875t-1.1625-0.49375q-0.93125 0-1.4688 0.59375t-0.5375 1.6188v3.9562h-1.1562v-7h1.1562v1.0875q0.4125-0.63125 0.96875-0.94375 0.5625-0.3125 1.2938-0.3125 1.2062 0 1.825 0.75 0.61875 0.74375 0.61875 2.1938z" style=""/>
   </g>
  </g>
  <g id="g82">
   <path id="polygon74" d="m340 180h-80v-40h80z" fill="#0f0"/>
   <path id="polygon76" d="m340 180h-80v-40h80z" fill="none" stroke="#000" stroke-width="2"/>
   <g id="text80" aria-label="pont">
    <path id="path179" d="m287.77 162.95v3.7125h-1.1562v-9.6625h1.1562v1.0625q0.3625-0.625 0.9125-0.925 0.55625-0.30625 1.325-0.30625 1.275 0 2.0688 1.0125 0.8 1.0125 0.8 2.6625t-0.8 2.6625q-0.79375 1.0125-2.0688 1.0125-0.76875 0-1.325-0.3-0.55-0.30625-0.9125-0.93125zm3.9125-2.4438q0-1.2688-0.525-1.9875-0.51875-0.725-1.4312-0.725t-1.4375 0.725q-0.51875 0.71875-0.51875 1.9875t0.51875 1.9938q0.525 0.71875 1.4375 0.71875t1.4312-0.71875q0.525-0.725 0.525-1.9938z" style=""/>
    <path id="path181" d="m297.49 157.81q-0.925 0-1.4625 0.725-0.5375 0.71875-0.5375 1.975t0.53125 1.9812q0.5375 0.71875 1.4688 0.71875 0.91875 0 1.4562-0.725t0.5375-1.975q0-1.2438-0.5375-1.9688-0.5375-0.73125-1.4562-0.73125zm0-0.975q1.5 0 2.3562 0.975t0.85625 2.7q0 1.7188-0.85625 2.7-0.85625 0.975-2.3562 0.975-1.5062 0-2.3625-0.975-0.85-0.98125-0.85-2.7 0-1.725 0.85-2.7 0.85625-0.975 2.3625-0.975z" style=""/>
    <path id="path183" d="m308.42 159.78v4.225h-1.15v-4.1875q0-0.99375-0.3875-1.4875t-1.1625-0.49375q-0.93125 0-1.4688 0.59375t-0.5375 1.6188v3.9562h-1.1562v-7h1.1562v1.0875q0.4125-0.63125 0.96875-0.94375 0.5625-0.3125 1.2938-0.3125 1.2062 0 1.825 0.75 0.61875 0.74375 0.61875 2.1938z" style=""/>
    <path id="path185" d="m311.87 155.01v1.9875h2.3688v0.89375h-2.3688v3.8q0 0.85625 0.23125 1.1 0.2375 0.24375 0.95625 0.24375h1.1812v0.9625h-1.1812q-1.3312 0-1.8375-0.49375-0.50625-0.5-0.50625-1.8125v-3.8h-0.84375v-0.89375h0.84375v-1.9875z" style=""/>
   </g>
  </g>
  <g id="g92">
   <path id="polygon84" d="m340 220h-80v-40h80z" fill="#1e90ff"/>
   <path id="polygon86" d="m340 220h-80v-40h80z" fill="none" stroke="#000" stroke-width="2"/>
   <g id="text90" aria-label="sugar">
    <path id="path190" d="m287.64 197.21v1.0875q-0.4875-0.25-1.0125-0.375t-1.0875-0.125q-0.85625 0-1.2875 0.2625-0.425 0.2625-0.425 0.7875 0 0.4 0.30625 0.63125 0.30625 0.225 1.2312 0.43125l0.39375 0.0875q1.225 0.2625 1.7375 0.74375 0.51875 0.475 0.51875 1.3312 0 0.975-0.775 1.5438-0.76875 0.56875-2.1188 0.56875-0.5625 0-1.175-0.1125-0.60625-0.10625-1.2812-0.325v-1.1875q0.6375 0.33125 1.2562 0.5 0.61875 0.1625 1.225 0.1625 0.8125 0 1.25-0.275 0.4375-0.28125 0.4375-0.7875 0-0.46875-0.31875-0.71875-0.3125-0.25-1.3812-0.48125l-0.4-0.0937q-1.0688-0.225-1.5438-0.6875-0.475-0.46875-0.475-1.2812 0-0.9875 0.7-1.525t1.9875-0.5375q0.6375 0 1.2 0.0937t1.0375 0.28125z" style=""/>
    <path id="path192" d="m289.74 201.24v-4.2375h1.15v4.1938q0 0.99375 0.3875 1.4938 0.3875 0.49375 1.1625 0.49375 0.93125 0 1.4688-0.59375 0.54375-0.59375 0.54375-1.6188v-3.9688h1.15v7h-1.15v-1.075q-0.41875 0.6375-0.975 0.95-0.55 0.30625-1.2812 0.30625-1.2062 0-1.8312-0.75t-0.625-2.1938z" style=""/>
    <path id="path194" d="m302.59 200.42q0-1.25-0.51875-1.9375-0.5125-0.6875-1.4438-0.6875-0.925 0-1.4438 0.6875-0.5125 0.6875-0.5125 1.9375 0 1.2438 0.5125 1.9312 0.51875 0.6875 1.4438 0.6875 0.93125 0 1.4438-0.6875 0.51875-0.6875 0.51875-1.9312zm1.15 2.7125q0 1.7875-0.79375 2.6562-0.79375 0.875-2.4312 0.875-0.60625 0-1.1438-0.0937-0.5375-0.0875-1.0438-0.275v-1.1188q0.50625 0.275 1 0.40625t1.0062 0.13125q1.1312 0 1.6938-0.59375 0.5625-0.5875 0.5625-1.7812v-0.56875q-0.35625 0.61875-0.9125 0.925t-1.3312 0.30625q-1.2875 0-2.075-0.98125t-0.7875-2.6q0-1.625 0.7875-2.6062t2.075-0.98125q0.775 0 1.3312 0.30625t0.9125 0.925v-1.0625h1.15z" style=""/>
    <path id="path196" d="m309.29 200.48q-1.3938 0-1.9312 0.31875t-0.5375 1.0875q0 0.6125 0.4 0.975 0.40625 0.35625 1.1 0.35625 0.95625 0 1.5312-0.675 0.58125-0.68125 0.58125-1.8062v-0.25625zm2.2938-0.475v3.9938h-1.15v-1.0625q-0.39375 0.6375-0.98125 0.94375-0.5875 0.3-1.4375 0.3-1.075 0-1.7125-0.6-0.63125-0.60625-0.63125-1.6188 0-1.1812 0.7875-1.7812 0.79375-0.6 2.3625-0.6h1.6125v-0.1125q0-0.79375-0.525-1.225-0.51875-0.4375-1.4625-0.4375-0.6 0-1.1688 0.14375t-1.0938 0.43125v-1.0625q0.63125-0.24375 1.225-0.3625 0.59375-0.125 1.1562-0.125 1.5188 0 2.2688 0.7875t0.75 2.3875z" style=""/>
    <path id="path198" d="m318.01 198.08q-0.19375-0.1125-0.425-0.1625-0.225-0.0563-0.5-0.0563-0.975 0-1.5 0.6375-0.51875 0.63125-0.51875 1.8188v3.6876h-1.1562v-7h1.1562v1.0875q0.3625-0.6375 0.94375-0.94375 0.58125-0.3125 1.4125-0.3125 0.11875 0 0.2625 0.0187 0.14375 0.0125 0.31875 0.0438z" style=""/>
   </g>
  </g>
 </g>
 <g id="g136" transform="translate(-.5612 -9.7658)">
  <g id="g104">
   <path id="polygon96" d="m460 140h-80v-40h80z" fill="#0f0"/>
   <path id="polygon98" d="m460 140h-80v-40h80z" fill="none" stroke="#000" stroke-width="2"/>
   <g id="text102" aria-label="szin">
    <path id="path203" d="m413.13 117.21v1.0875q-0.4875-0.25-1.0125-0.375t-1.0875-0.125q-0.85625 0-1.2875 0.2625-0.425 0.2625-0.425 0.7875 0 0.4 0.30625 0.63125 0.30625 0.225 1.2312 0.43125l0.39375 0.0875q1.225 0.2625 1.7375 0.74375 0.51875 0.475 0.51875 1.3312 0 0.975-0.775 1.5438-0.76875 0.56875-2.1188 0.56875-0.5625 0-1.175-0.1125-0.60625-0.10625-1.2812-0.325v-1.1875q0.6375 0.33125 1.2562 0.5 0.61875 0.1625 1.225 0.1625 0.8125 0 1.25-0.275 0.4375-0.28125 0.4375-0.7875 0-0.46875-0.31875-0.71875-0.3125-0.25-1.3812-0.48125l-0.4-0.0937q-1.0688-0.225-1.5438-0.6875-0.475-0.46875-0.475-1.2812 0-0.9875 0.7-1.525t1.9875-0.5375q0.6375 0 1.2 0.0937t1.0375 0.28125z" style=""/>
    <path id="path205" d="m414.84 117h5.4625v1.05l-4.325 5.0312h4.325v0.91875h-5.6188v-1.05l4.325-5.0312h-4.1688z" style=""/>
    <path id="path207" d="m422.07 117h1.15v7h-1.15zm0-2.725h1.15v1.4562h-1.15z" style=""/>
    <path id="path209" d="m431.44 119.78v4.225h-1.15v-4.1875q0-0.99375-0.3875-1.4875t-1.1625-0.49375q-0.93125 0-1.4688 0.59375t-0.5375 1.6188v3.9562h-1.1562v-7h1.1562v1.0875q0.4125-0.63125 0.96875-0.94375 0.5625-0.3125 1.2938-0.3125 1.2062 0 1.825 0.75 0.61875 0.74375 0.61875 2.1938z" style=""/>
   </g>
  </g>
  <g id="g114">
   <path id="polygon106" d="m460 180h-80v-40h80z" fill="#0f0"/>
   <path id="polygon108" d="m460 180h-80v-40h80z" fill="none" stroke="#000" stroke-width="2"/>
   <g id="text112" aria-label="pont">
    <path id="path214" d="m407.77 162.95v3.7125h-1.1562v-9.6625h1.1562v1.0625q0.3625-0.625 0.9125-0.925 0.55625-0.30625 1.325-0.30625 1.275 0 2.0688 1.0125 0.8 1.0125 0.8 2.6625t-0.8 2.6625q-0.79375 1.0125-2.0688 1.0125-0.76875 0-1.325-0.3-0.55-0.30625-0.9125-0.93125zm3.9125-2.4438q0-1.2688-0.525-1.9875-0.51875-0.725-1.4312-0.725t-1.4375 0.725q-0.51875 0.71875-0.51875 1.9875t0.51875 1.9938q0.525 0.71875 1.4375 0.71875t1.4312-0.71875q0.525-0.725 0.525-1.9938z" style=""/>
    <path id="path216" d="m417.49 157.81q-0.925 0-1.4625 0.725-0.5375 0.71875-0.5375 1.975t0.53125 1.9812q0.5375 0.71875 1.4688 0.71875 0.91875 0 1.4562-0.725t0.5375-1.975q0-1.2438-0.5375-1.9688-0.5375-0.73125-1.4562-0.73125zm0-0.975q1.5 0 2.3562 0.975t0.85625 2.7q0 1.7188-0.85625 2.7-0.85625 0.975-2.3562 0.975-1.5062 0-2.3625-0.975-0.85-0.98125-0.85-2.7 0-1.725 0.85-2.7 0.85625-0.975 2.3625-0.975z" style=""/>
    <path id="path218" d="m428.42 159.78v4.225h-1.15v-4.1875q0-0.99375-0.3875-1.4875t-1.1625-0.49375q-0.93125 0-1.4688 0.59375t-0.5375 1.6188v3.9562h-1.1562v-7h1.1562v1.0875q0.4125-0.63125 0.96875-0.94375 0.5625-0.3125 1.2938-0.3125 1.2062 0 1.825 0.75 0.61875 0.74375 0.61875 2.1938z" style=""/>
    <path id="path220" d="m431.87 155.01v1.9875h2.3688v0.89375h-2.3688v3.8q0 0.85625 0.23125 1.1 0.2375 0.24375 0.95625 0.24375h1.1812v0.9625h-1.1812q-1.3312 0-1.8375-0.49375-0.50625-0.5-0.50625-1.8125v-3.8h-0.84375v-0.89375h0.84375v-1.9875z" style=""/>
   </g>
  </g>
  <g id="g124">
   <path id="polygon116" d="m460 220h-80v-40h80z" fill="#f00"/>
   <path id="polygon118" d="m460 220h-80v-40h80z" fill="none" stroke="#000" stroke-width="2"/>
   <g id="text122" aria-label="a">
    <path id="path225" d="m420.46 200.48q-1.3938 0-1.9312 0.31875t-0.5375 1.0875q0 0.6125 0.4 0.975 0.40625 0.35625 1.1 0.35625 0.95625 0 1.5312-0.675 0.58125-0.68125 0.58125-1.8062v-0.25625zm2.2938-0.475v3.9938h-1.15v-1.0625q-0.39375 0.6375-0.98125 0.94375-0.5875 0.3-1.4375 0.3-1.075 0-1.7125-0.6-0.63125-0.60625-0.63125-1.6188 0-1.1812 0.7875-1.7812 0.79375-0.6 2.3625-0.6h1.6125v-0.1125q0-0.79375-0.525-1.225-0.51875-0.4375-1.4625-0.4375-0.6 0-1.1688 0.14375t-1.0938 0.43125v-1.0625q0.63125-0.24375 1.225-0.3625 0.59375-0.125 1.1562-0.125 1.5188 0 2.2688 0.7875t0.75 2.3875z" style=""/>
   </g>
  </g>
  <g id="g134">
   <path id="polygon126" d="m460 260h-80v-40h80z" fill="#f00"/>
   <path id="polygon128" d="m460 260h-80v-40h80z" fill="none" stroke="#000" stroke-width="2"/>
   <g id="text132" aria-label="b">
    <path id="path230" d="m422.17 240.51q0-1.2688-0.525-1.9875-0.51875-0.725-1.4312-0.725t-1.4375 0.725q-0.51875 0.71875-0.51875 1.9875t0.51875 1.9938q0.525 0.71875 1.4375 0.71875t1.4312-0.71875q0.525-0.725 0.525-1.9938zm-3.9125-2.4438q0.3625-0.625 0.9125-0.925 0.55625-0.30625 1.325-0.30625 1.275 0 2.0688 1.0125 0.8 1.0125 0.8 2.6625t-0.8 2.6625q-0.79375 1.0125-2.0688 1.0125-0.76875 0-1.325-0.3-0.55-0.30625-0.9125-0.93125v1.05h-1.1562v-9.725h1.1562z" style=""/>
   </g>
  </g>
 </g>
 <g id="g144" transform="translate(-.5612 -9.7658)">
  <path id="line138" d="m100 120 29.384-15.465" fill="none" stroke="#000" stroke-width="2"/>
  <path id="polygon140" d="m129.38 104.54-4.541-3.261 11.178-0.233-6.52 9.082z"/>
  <path id="polygon142" d="m129.38 104.54-4.541-3.261 11.178-0.233-6.52 9.082z" fill="none" stroke="#000" stroke-width="2"/>
 </g>
 <g id="text148" aria-label="Alakzat*">
  <path id="path236" d="m59.275 73.17-1.7125 4.6438h3.4312zm-0.7125-1.2438h1.4312l3.5562 9.3312h-1.3125l-0.85-2.3938h-4.2062l-0.85 2.3938h-1.3312z" style=""/>
  <path id="path238" d="m64.856 71.532h1.15v9.725h-1.15z" style=""/>
  <path id="path240" d="m71.588 77.738q-1.3938 0-1.9312 0.31875t-0.5375 1.0875q0 0.6125 0.4 0.975 0.40625 0.35625 1.1 0.35625 0.95625 0 1.5312-0.675 0.58125-0.68125 0.58125-1.8062v-0.25625zm2.2938-0.475v3.9938h-1.15v-1.0625q-0.39375 0.6375-0.98125 0.94375-0.5875 0.3-1.4375 0.3-1.075 0-1.7125-0.6-0.63125-0.60625-0.63125-1.6188 0-1.1812 0.7875-1.7812 0.79375-0.6 2.3625-0.6h1.6125v-0.1125q0-0.79375-0.525-1.225-0.51875-0.4375-1.4625-0.4375-0.6 0-1.1688 0.14375t-1.0938 0.43125v-1.0625q0.63125-0.24375 1.225-0.3625 0.59375-0.125 1.1562-0.125 1.5188 0 2.2688 0.7875t0.75 2.3875z" style=""/>
  <path id="path242" d="m76.213 71.532h1.1562v5.7438l3.4312-3.0188h1.4688l-3.7125 3.275 3.8688 3.725h-1.5l-3.5562-3.4188v3.4188h-1.1562z" style=""/>
  <path id="path244" d="m83.181 74.257h5.4625v1.05l-4.325 5.0312h4.325v0.91875h-5.6188v-1.05l4.325-5.0312h-4.1688z" style=""/>
  <path id="path246" d="m93.588 77.738q-1.3938 0-1.9312 0.31875t-0.5375 1.0875q0 0.6125 0.4 0.975 0.40625 0.35625 1.1 0.35625 0.95625 0 1.5312-0.675 0.58125-0.68125 0.58125-1.8062v-0.25625zm2.2938-0.475v3.9938h-1.15v-1.0625q-0.39375 0.6375-0.98125 0.94375-0.5875 0.3-1.4375 0.3-1.075 0-1.7125-0.6-0.63125-0.60625-0.63125-1.6188 0-1.1812 0.7875-1.7812 0.79375-0.6 2.3625-0.6h1.6125v-0.1125q0-0.79375-0.525-1.225-0.51875-0.4375-1.4625-0.4375-0.6 0-1.1688 0.14375t-1.0938 0.43125v-1.0625q0.63125-0.24375 1.225-0.3625 0.59375-0.125 1.1562-0.125 1.5188 0 2.2688 0.7875t0.75 2.3875z" style=""/>
  <path id="path248" d="m99.394 72.27v1.9875h2.3687v0.89375h-2.3687v3.8q0 0.85625 0.23125 1.1 0.2375 0.24375 0.95625 0.24375h1.1812v0.9625h-1.1812q-1.3312 0-1.8375-0.49375-0.50625-0.5-0.50625-1.8125v-3.8h-0.84375v-0.89375h0.84375v-1.9875z" style=""/>
  <path id="path250" d="m108.09 73.463-2.2438 1.2125 2.2438 1.2188-0.3625 0.6125-2.1-1.2688v2.3562h-0.7125v-2.3562l-2.1 1.2688-0.3625-0.6125 2.2438-1.2188-2.2438-1.2125 0.3625-0.61875 2.1 1.2688v-2.3562h0.7125v2.3562l2.1-1.2688z" style=""/>
 </g>
</svg>
